After iteration 1:
(s1 a1 -1.0000) (s2 a1 1.0000) (s3 a1 1.0000) (s4 a1 -1.0000) (s5 a1 1.0000) (s6 a3 -1.0000) (s7 a1 0.0000) (s8 a2 -1.0000) (s9 a1 1.0000) (s10 a1 0.0000)
After iteration 2:
(s1 a2 -0.8200) (s2 a3 1.2700) (s3 a1 1.9000) (s4 a1 -1.5400) (s5 a1 1.9000) (s6 a3 -1.0000) (s7 a1 0.4500) (s8 a2 -1.0000) (s9 a2 1.4500) (s10 a2 0.5400)
After iteration 3:
(s1 a2 -0.5284) (s2 a3 1.7965) (s3 a1 2.5075) (s4 a1 -1.3780) (s5 a1 2.5075) (s6 a3 -0.7975) (s7 a1 0.8550) (s8 a2 -0.5950) (s9 a2 1.8955) (s10 a3 0.9756)
After iteration 4:
(s1 a2 -0.1420) (s2 a3 2.2157) (s3 a1 2.9813) (s4 a1 -1.1228) (s5 a1 2.9813) (s6 a3 -0.5059) (s7 a1 1.2377) (s8 a2 -0.1394) (s9 a2 2.2920) (s10 a3 1.4371)
After iteration 5:
(s1 a2 0.2057) (s2 a3 2.5847) (s3 a1 3.3730) (s4 a1 -0.8276) (s5 a1 3.3730) (s6 a3 -0.1963) (s7 a1 1.5884) (s8 a2 0.2789) (s9 a2 2.6781) (s10 a3 1.8399)
After iteration 6:
(s1 a2 0.5235) (s2 a3 2.9114) (s3 a1 3.7230) (s4 a1 -0.5342) (s5 a1 3.7230) (s6 a3 0.1168) (s7 a1 1.9199) (s8 a2 0.6434) (s9 a2 3.0331) (s10 a3 2.1805)
After iteration 7:
(s1 a2 0.8181) (s2 a3 3.2147) (s3 a1 4.0402) (s4 a1 -0.2458) (s5 a1 4.0402) (s6 a3 0.4175) (s7 a1 2.2288) (s8 a2 0.9649) (s9 a2 3.3461) (s10 a3 2.4868)
After iteration 8:
(s1 a2 1.0933) (s2 a3 3.4950) (s3 a1 4.3239) (s4 a1 0.0278) (s5 a1 4.3239) (s6 a3 0.6936) (s7 a1 2.5087) (s8 a2 1.2523) (s9 a2 3.6248) (s10 a3 2.7662)
After iteration 9:
(s1 a2 1.3449) (s2 a3 3.7479) (s3 a1 4.5769) (s4 a1 0.2777) (s5 a1 4.5769) (s6 a3 0.9433) (s7 a1 2.7601) (s8 a2 1.5093) (s9 a2 3.8760) (s10 a3 3.0192)
After iteration 10:
(s1 a2 1.5715) (s2 a3 3.9746) (s3 a1 4.8038) (s4 a1 0.5030) (s5 a1 4.8038) (s6 a3 1.1687) (s7 a1 2.9862) (s8 a2 1.7388) (s9 a2 4.1028) (s10 a3 3.2466)
After iteration 11:
(s1 a2 1.7751) (s2 a3 4.1784) (s3 a1 5.0080) (s4 a1 0.7061) (s5 a1 5.0080) (s6 a3 1.3722) (s7 a1 3.1901) (s8 a2 1.9442) (s9 a2 4.3072) (s10 a3 3.4507)
After iteration 12:
(s1 a2 1.9585) (s2 a3 4.3619) (s3 a1 5.1919) (s4 a1 0.8894) (s5 a1 5.1919) (s6 a3 1.5557) (s7 a1 3.3738) (s8 a2 2.1285) (s9 a2 4.4911) (s10 a3 3.6343)
After iteration 13:
(s1 a2 2.1238) (s2 a3 4.5273) (s3 a1 5.3573) (s4 a1 1.0547) (s5 a1 5.3573) (s6 a3 1.7211) (s7 a1 3.5392) (s8 a2 2.2941) (s9 a2 4.6564) (s10 a3 3.7997)
After iteration 14:
(s1 a2 2.2726) (s2 a3 4.6762) (s3 a1 5.5062) (s4 a1 1.2035) (s5 a1 5.5062) (s6 a3 1.8699) (s7 a1 3.6880) (s8 a2 2.4432) (s9 a2 4.8052) (s10 a3 3.9485)
After iteration 15:
(s1 a2 2.4066) (s2 a3 4.8101) (s3 a1 5.6401) (s4 a1 1.3374) (s5 a1 5.6401) (s6 a3 2.0038) (s7 a1 3.8220) (s8 a2 2.5772) (s9 a2 4.9392) (s10 a3 4.0825)
After iteration 16:
(s1 a2 2.5271) (s2 a3 4.9307) (s3 a1 5.7607) (s4 a1 1.4580) (s5 a1 5.7607) (s6 a3 2.1243) (s7 a1 3.9425) (s8 a2 2.6978) (s9 a2 5.0598) (s10 a3 4.2031)
After iteration 17:
(s1 a2 2.6356) (s2 a3 5.0392) (s3 a1 5.8692) (s4 a1 1.5665) (s5 a1 5.8692) (s6 a3 2.2329) (s7 a1 4.0510) (s8 a2 2.8063) (s9 a2 5.1683) (s10 a3 4.3116)
After iteration 18:
(s1 a2 2.7333) (s2 a3 5.1368) (s3 a1 5.9669) (s4 a1 1.6641) (s5 a1 5.9669) (s6 a3 2.3305) (s7 a1 4.1487) (s8 a2 2.9040) (s9 a2 5.2659) (s10 a3 4.4092)
After iteration 19:
(s1 a2 2.8212) (s2 a3 5.2247) (s3 a1 6.0548) (s4 a1 1.7520) (s5 a1 6.0548) (s6 a3 2.4184) (s7 a1 4.2366) (s8 a2 2.9919) (s9 a2 5.3538) (s10 a3 4.4971)
After iteration 20:
(s1 a2 2.9003) (s2 a3 5.3038) (s3 a1 6.1339) (s4 a1 1.8311) (s5 a1 6.1339) (s6 a3 2.4975) (s7 a1 4.3157) (s8 a2 3.0710) (s9 a2 5.4329) (s10 a3 4.5762)
