After Iteration 0: w(A1)=-0.0375 w(A2)=-0.0375 w(A3)=0.0000 w(A4)=0.0000 w(A5)=0.0000 w(A6)=0.0000 w(A7)=0.0000 w(A8)=0.0000 w(A9)=-0.0375 w(A10)=-0.0375 w(A11)=0.0000 w(A12)=0.0000 w(A13)=-0.0375 output=0.4533
After Iteration 1: w(A1)=-0.0375 w(A2)=-0.0375 w(A3)=-0.0368 w(A4)=-0.0368 w(A5)=0.0000 w(A6)=-0.0368 w(A7)=-0.0368 w(A8)=0.0000 w(A9)=-0.0375 w(A10)=-0.0375 w(A11)=0.0000 w(A12)=0.0000 w(A13)=-0.0743 output=0.4449
After Iteration 2: w(A1)=-0.0375 w(A2)=0.0041 w(A3)=-0.0368 w(A4)=0.0049 w(A5)=0.0416 w(A6)=-0.0368 w(A7)=0.0049 w(A8)=0.0000 w(A9)=0.0041 w(A10)=0.0041 w(A11)=0.0416 w(A12)=0.0000 w(A13)=-0.0326 output=0.5182
After Iteration 3: w(A1)=-0.0375 w(A2)=0.0041 w(A3)=-0.0731 w(A4)=0.0049 w(A5)=0.0416 w(A6)=-0.0731 w(A7)=0.0049 w(A8)=-0.0363 w(A9)=0.0041 w(A10)=-0.0322 w(A11)=0.0053 w(A12)=-0.0363 w(A13)=-0.0690 output=0.4220
After Iteration 4: w(A1)=-0.0375 w(A2)=-0.0301 w(A3)=-0.0731 w(A4)=0.0049 w(A5)=0.0416 w(A6)=-0.0731 w(A7)=0.0049 w(A8)=-0.0706 w(A9)=-0.0301 w(A10)=-0.0665 w(A11)=-0.0290 w(A12)=-0.0706 w(A13)=-0.1033 output=0.4013
After Iteration 5: w(A1)=-0.0375 w(A2)=0.0127 w(A3)=-0.0303 w(A4)=0.0477 w(A5)=0.0416 w(A6)=-0.0731 w(A7)=0.0049 w(A8)=-0.0278 w(A9)=-0.0301 w(A10)=-0.0236 w(A11)=0.0139 w(A12)=-0.0706 w(A13)=-0.0604 output=0.4831
After Iteration 6: w(A1)=-0.0375 w(A2)=-0.0234 w(A3)=-0.0663 w(A4)=0.0477 w(A5)=0.0416 w(A6)=-0.0731 w(A7)=-0.0312 w(A8)=-0.0278 w(A9)=-0.0301 w(A10)=-0.0236 w(A11)=0.0139 w(A12)=-0.0706 w(A13)=-0.0965 output=0.4459
After Iteration 7: w(A1)=-0.0375 w(A2)=-0.0234 w(A3)=-0.0663 w(A4)=0.0121 w(A5)=0.0060 w(A6)=-0.0731 w(A7)=-0.0668 w(A8)=-0.0634 w(A9)=-0.0658 w(A10)=-0.0236 w(A11)=0.0139 w(A12)=-0.0706 w(A13)=-0.1321 output=0.4231
After Iteration 8: w(A1)=-0.0375 w(A2)=-0.0234 w(A3)=-0.0663 w(A4)=0.0121 w(A5)=0.0060 w(A6)=-0.0731 w(A7)=-0.0991 w(A8)=-0.0634 w(A9)=-0.0981 w(A10)=-0.0236 w(A11)=-0.0184 w(A12)=-0.0706 w(A13)=-0.1644 output=0.4061
After Iteration 9: w(A1)=0.0056 w(A2)=-0.0234 w(A3)=-0.0233 w(A4)=0.0552 w(A5)=0.0491 w(A6)=-0.0731 w(A7)=-0.0991 w(A8)=-0.0634 w(A9)=-0.0550 w(A10)=0.0194 w(A11)=0.0246 w(A12)=-0.0706 w(A13)=-0.1213 output=0.4886
After Iteration 10: w(A1)=0.0056 w(A2)=0.0194 w(A3)=0.0195 w(A4)=0.0552 w(A5)=0.0919 w(A6)=-0.0731 w(A7)=-0.0563 w(A8)=-0.0206 w(A9)=-0.0122 w(A10)=0.0623 w(A11)=0.0674 w(A12)=-0.0278 w(A13)=-0.0785 output=0.5163
After Iteration 11: w(A1)=0.0056 w(A2)=0.0194 w(A3)=-0.0187 w(A4)=0.0169 w(A5)=0.0919 w(A6)=-0.0731 w(A7)=-0.0946 w(A8)=-0.0206 w(A9)=-0.0122 w(A10)=0.0240 w(A11)=0.0292 w(A12)=-0.0661 w(A13)=-0.1168 output=0.4437
After Iteration 12: w(A1)=0.0465 w(A2)=0.0194 w(A3)=0.0221 w(A4)=0.0578 w(A5)=0.0919 w(A6)=-0.0731 w(A7)=-0.0537 w(A8)=0.0203 w(A9)=-0.0122 w(A10)=0.0649 w(A11)=0.0292 w(A12)=-0.0661 w(A13)=-0.0759 output=0.5205
After Iteration 13: w(A1)=0.0465 w(A2)=0.0194 w(A3)=-0.0145 w(A4)=0.0212 w(A5)=0.0919 w(A6)=-0.0731 w(A7)=-0.0537 w(A8)=0.0203 w(A9)=-0.0488 w(A10)=0.0649 w(A11)=-0.0075 w(A12)=-0.1027 w(A13)=-0.1126 output=0.4342
After Iteration 14: w(A1)=0.0132 w(A2)=0.0194 w(A3)=-0.0145 w(A4)=0.0212 w(A5)=0.0919 w(A6)=-0.0731 w(A7)=-0.0870 w(A8)=0.0203 w(A9)=-0.0821 w(A10)=0.0316 w(A11)=-0.0075 w(A12)=-0.1360 w(A13)=-0.1458 output=0.3998
After Iteration 15: w(A1)=0.0132 w(A2)=0.0601 w(A3)=0.0262 w(A4)=0.0618 w(A5)=0.1326 w(A6)=-0.0324 w(A7)=-0.0870 w(A8)=0.0203 w(A9)=-0.0414 w(A10)=0.0316 w(A11)=0.0332 w(A12)=-0.1360 w(A13)=-0.1051 output=0.5337
After Iteration 16: w(A1)=-0.0216 w(A2)=0.0601 w(A3)=0.0262 w(A4)=0.0618 w(A5)=0.0979 w(A6)=-0.0324 w(A7)=-0.1217 w(A8)=-0.0144 w(A9)=-0.0762 w(A10)=-0.0031 w(A11)=-0.0015 w(A12)=-0.1707 w(A13)=-0.1399 output=0.3891
After Iteration 17: w(A1)=-0.0466 w(A2)=0.0601 w(A3)=0.0262 w(A4)=0.0618 w(A5)=0.0979 w(A6)=-0.0575 w(A7)=-0.1468 w(A8)=-0.0144 w(A9)=-0.1012 w(A10)=-0.0282 w(A11)=-0.0266 w(A12)=-0.1958 w(A13)=-0.1650 output=0.3170
After Iteration 18: w(A1)=-0.0728 w(A2)=0.0601 w(A3)=0.0262 w(A4)=0.0357 w(A5)=0.0979 w(A6)=-0.0837 w(A7)=-0.1468 w(A8)=-0.0406 w(A9)=-0.1274 w(A10)=-0.0282 w(A11)=-0.0266 w(A12)=-0.2220 w(A13)=-0.1911 output=0.3314
After Iteration 19: w(A1)=-0.0728 w(A2)=0.0601 w(A3)=0.0015 w(A4)=0.0109 w(A5)=0.0979 w(A6)=-0.1084 w(A7)=-0.1715 w(A8)=-0.0406 w(A9)=-0.1274 w(A10)=-0.0282 w(A11)=-0.0266 w(A12)=-0.2467 w(A13)=-0.2159 output=0.3252
After Iteration 20: w(A1)=-0.0293 w(A2)=0.1036 w(A3)=0.0450 w(A4)=0.0109 w(A5)=0.0979 w(A6)=-0.0649 w(A7)=-0.1280 w(A8)=0.0029 w(A9)=-0.0839 w(A10)=0.0153 w(A11)=-0.0266 w(A12)=-0.2032 w(A13)=-0.1724 output=0.3740
After Iteration 21: w(A1)=-0.0293 w(A2)=0.0695 w(A3)=0.0109 w(A4)=-0.0232 w(A5)=0.0637 w(A6)=-0.0990 w(A7)=-0.1280 w(A8)=0.0029 w(A9)=-0.0839 w(A10)=-0.0188 w(A11)=-0.0266 w(A12)=-0.2373 w(A13)=-0.2065 output=0.3916
After Iteration 22: w(A1)=-0.0293 w(A2)=0.0695 w(A3)=-0.0135 w(A4)=-0.0476 w(A5)=0.0637 w(A6)=-0.1234 w(A7)=-0.1280 w(A8)=-0.0215 w(A9)=-0.0839 w(A10)=-0.0432 w(A11)=-0.0509 w(A12)=-0.2617 w(A13)=-0.2309 output=0.3116
After Iteration 23: w(A1)=-0.0466 w(A2)=0.0695 w(A3)=-0.0135 w(A4)=-0.0649 w(A5)=0.0637 w(A6)=-0.1407 w(A7)=-0.1453 w(A8)=-0.0388 w(A9)=-0.1012 w(A10)=-0.0432 w(A11)=-0.0509 w(A12)=-0.2790 w(A13)=-0.2482 output=0.2564
After Iteration 24: w(A1)=-0.0466 w(A2)=0.0695 w(A3)=-0.0423 w(A4)=-0.0649 w(A5)=0.0637 w(A6)=-0.1407 w(A7)=-0.1741 w(A8)=-0.0388 w(A9)=-0.1012 w(A10)=-0.0432 w(A11)=-0.0509 w(A12)=-0.2790 w(A13)=-0.2769 output=0.3791
After Iteration 25: w(A1)=-0.0653 w(A2)=0.0695 w(A3)=-0.0610 w(A4)=-0.0649 w(A5)=0.0637 w(A6)=-0.1407 w(A7)=-0.1928 w(A8)=-0.0574 w(A9)=-0.1012 w(A10)=-0.0432 w(A11)=-0.0509 w(A12)=-0.2977 w(A13)=-0.2956 output=0.2749
After Iteration 26: w(A1)=-0.0843 w(A2)=0.0695 w(A3)=-0.0610 w(A4)=-0.0649 w(A5)=0.0637 w(A6)=-0.1597 w(A7)=-0.1928 w(A8)=-0.0574 w(A9)=-0.1012 w(A10)=-0.0622 w(A11)=-0.0509 w(A12)=-0.3167 w(A13)=-0.3146 output=0.2814
After Iteration 27: w(A1)=-0.0989 w(A2)=0.0695 w(A3)=-0.0610 w(A4)=-0.0649 w(A5)=0.0491 w(A6)=-0.1743 w(A7)=-0.2074 w(A8)=-0.0574 w(A9)=-0.1012 w(A10)=-0.0768 w(A11)=-0.0509 w(A12)=-0.3313 w(A13)=-0.3292 output=0.2370
After Iteration 28: w(A1)=-0.1163 w(A2)=0.0695 w(A3)=-0.0610 w(A4)=-0.0649 w(A5)=0.0491 w(A6)=-0.1743 w(A7)=-0.2248 w(A8)=-0.0748 w(A9)=-0.1186 w(A10)=-0.0942 w(A11)=-0.0683 w(A12)=-0.3313 w(A13)=-0.3466 output=0.2604
After Iteration 29: w(A1)=-0.1163 w(A2)=0.0695 w(A3)=-0.0811 w(A4)=-0.0850 w(A5)=0.0491 w(A6)=-0.1944 w(A7)=-0.2248 w(A8)=-0.0949 w(A9)=-0.1186 w(A10)=-0.0942 w(A11)=-0.0884 w(A12)=-0.3313 w(A13)=-0.3667 output=0.2869
After Iteration 30: w(A1)=-0.1163 w(A2)=0.0578 w(A3)=-0.0928 w(A4)=-0.0850 w(A5)=0.0491 w(A6)=-0.1944 w(A7)=-0.2365 w(A8)=-0.1066 w(A9)=-0.1303 w(A10)=-0.1059 w(A11)=-0.0884 w(A12)=-0.3430 w(A13)=-0.3784 output=0.2082
After Iteration 31: w(A1)=-0.1163 w(A2)=0.0578 w(A3)=-0.0928 w(A4)=-0.0850 w(A5)=0.0306 w(A6)=-0.2129 w(A7)=-0.2550 w(A8)=-0.1251 w(A9)=-0.1303 w(A10)=-0.1059 w(A11)=-0.0884 w(A12)=-0.3430 w(A13)=-0.3969 output=0.2770
After Iteration 32: w(A1)=-0.1163 w(A2)=0.0476 w(A3)=-0.1030 w(A4)=-0.0850 w(A5)=0.0203 w(A6)=-0.2232 w(A7)=-0.2653 w(A8)=-0.1354 w(A9)=-0.1303 w(A10)=-0.1059 w(A11)=-0.0884 w(A12)=-0.3533 w(A13)=-0.4072 output=0.1947
After Iteration 33: w(A1)=-0.1163 w(A2)=0.0304 w(A3)=-0.1030 w(A4)=-0.1021 w(A5)=0.0203 w(A6)=-0.2232 w(A7)=-0.2653 w(A8)=-0.1525 w(A9)=-0.1303 w(A10)=-0.1059 w(A11)=-0.0884 w(A12)=-0.3704 w(A13)=-0.4243 output=0.2652
After Iteration 34: w(A1)=-0.1272 w(A2)=0.0304 w(A3)=-0.1030 w(A4)=-0.1130 w(A5)=0.0203 w(A6)=-0.2232 w(A7)=-0.2761 w(A8)=-0.1634 w(A9)=-0.1411 w(A10)=-0.1168 w(A11)=-0.0884 w(A12)=-0.3704 w(A13)=-0.4352 output=0.2022
After Iteration 35: w(A1)=-0.1272 w(A2)=0.0304 w(A3)=-0.1030 w(A4)=-0.1172 w(A5)=0.0203 w(A6)=-0.2274 w(A7)=-0.2803 w(A8)=-0.1676 w(A9)=-0.1454 w(A10)=-0.1210 w(A11)=-0.0927 w(A12)=-0.3747 w(A13)=-0.4394 output=0.1228
After Iteration 36: w(A1)=-0.1339 w(A2)=0.0237 w(A3)=-0.1030 w(A4)=-0.1240 w(A5)=0.0203 w(A6)=-0.2342 w(A7)=-0.2871 w(A8)=-0.1676 w(A9)=-0.1454 w(A10)=-0.1210 w(A11)=-0.0994 w(A12)=-0.3814 w(A13)=-0.4462 output=0.1568
After Iteration 37: w(A1)=-0.1339 w(A2)=0.0237 w(A3)=-0.1030 w(A4)=-0.1240 w(A5)=0.0017 w(A6)=-0.2342 w(A7)=-0.2871 w(A8)=-0.1863 w(A9)=-0.1640 w(A10)=-0.1396 w(A11)=-0.0994 w(A12)=-0.3814 w(A13)=-0.4648 output=0.2783
After Iteration 38: w(A1)=-0.1339 w(A2)=0.0194 w(A3)=-0.1073 w(A4)=-0.1282 w(A5)=0.0017 w(A6)=-0.2342 w(A7)=-0.2913 w(A8)=-0.1905 w(A9)=-0.1682 w(A10)=-0.1439 w(A11)=-0.1036 w(A12)=-0.3857 w(A13)=-0.4690 output=0.1226
After Iteration 39: w(A1)=-0.1339 w(A2)=0.0194 w(A3)=-0.1073 w(A4)=-0.1282 w(A5)=-0.0257 w(A6)=-0.2342 w(A7)=-0.2913 w(A8)=-0.1905 w(A9)=-0.1682 w(A10)=-0.1439 w(A11)=-0.1036 w(A12)=-0.3857 w(A13)=-0.4964 output=0.3724
After Iteration 40: w(A1)=-0.1414 w(A2)=0.0194 w(A3)=-0.1148 w(A4)=-0.1282 w(A5)=-0.0332 w(A6)=-0.2342 w(A7)=-0.2988 w(A8)=-0.1980 w(A9)=-0.1757 w(A10)=-0.1514 w(A11)=-0.1036 w(A12)=-0.3857 w(A13)=-0.5039 output=0.1656
After Iteration 41: w(A1)=-0.1538 w(A2)=0.0071 w(A3)=-0.1271 w(A4)=-0.1405 w(A5)=-0.0455 w(A6)=-0.2342 w(A7)=-0.3112 w(A8)=-0.1980 w(A9)=-0.1757 w(A10)=-0.1514 w(A11)=-0.1036 w(A12)=-0.3857 w(A13)=-0.5163 output=0.2163
After Iteration 42: w(A1)=-0.1185 w(A2)=0.0424 w(A3)=-0.0918 w(A4)=-0.1405 w(A5)=-0.0103 w(A6)=-0.2342 w(A7)=-0.2759 w(A8)=-0.1980 w(A9)=-0.1405 w(A10)=-0.1161 w(A11)=-0.0684 w(A12)=-0.3857 w(A13)=-0.4810 output=0.2210
After Iteration 43: w(A1)=-0.1216 w(A2)=0.0424 w(A3)=-0.0949 w(A4)=-0.1436 w(A5)=-0.0133 w(A6)=-0.2373 w(A7)=-0.2790 w(A8)=-0.2011 w(A9)=-0.1405 w(A10)=-0.1192 w(A11)=-0.0714 w(A12)=-0.3887 w(A13)=-0.4841 output=0.1039
After Iteration 44: w(A1)=-0.1216 w(A2)=0.0201 w(A3)=-0.1172 w(A4)=-0.1436 w(A5)=-0.0356 w(A6)=-0.2373 w(A7)=-0.2790 w(A8)=-0.2011 w(A9)=-0.1627 w(A10)=-0.1192 w(A11)=-0.0714 w(A12)=-0.3887 w(A13)=-0.5063 output=0.3096
After Iteration 45: w(A1)=-0.1216 w(A2)=0.0201 w(A3)=-0.1346 w(A4)=-0.1610 w(A5)=-0.0530 w(A6)=-0.2373 w(A7)=-0.2790 w(A8)=-0.2011 w(A9)=-0.1627 w(A10)=-0.1366 w(A11)=-0.0714 w(A12)=-0.3887 w(A13)=-0.5237 output=0.2672
After Iteration 46: w(A1)=-0.1216 w(A2)=0.0124 w(A3)=-0.1422 w(A4)=-0.1610 w(A5)=-0.0530 w(A6)=-0.2449 w(A7)=-0.2866 w(A8)=-0.2011 w(A9)=-0.1627 w(A10)=-0.1366 w(A11)=-0.0714 w(A12)=-0.3964 w(A13)=-0.5314 output=0.1695
After Iteration 47: w(A1)=-0.1216 w(A2)=0.0124 w(A3)=-0.1003 w(A4)=-0.1610 w(A5)=-0.0111 w(A6)=-0.2449 w(A7)=-0.2866 w(A8)=-0.2011 w(A9)=-0.1627 w(A10)=-0.1366 w(A11)=-0.0714 w(A12)=-0.3545 w(A13)=-0.4895 output=0.2778
After Iteration 48: w(A1)=-0.1288 w(A2)=0.0124 w(A3)=-0.1003 w(A4)=-0.1683 w(A5)=-0.0111 w(A6)=-0.2522 w(A7)=-0.2866 w(A8)=-0.2011 w(A9)=-0.1627 w(A10)=-0.1438 w(A11)=-0.0787 w(A12)=-0.3617 w(A13)=-0.4967 output=0.1638
After Iteration 49: w(A1)=-0.1335 w(A2)=0.0078 w(A3)=-0.1050 w(A4)=-0.1729 w(A5)=-0.0157 w(A6)=-0.2568 w(A7)=-0.2866 w(A8)=-0.2057 w(A9)=-0.1674 w(A10)=-0.1438 w(A11)=-0.0787 w(A12)=-0.3664 w(A13)=-0.5014 output=0.1282
After Iteration 50: w(A1)=-0.1335 w(A2)=-0.0111 w(A3)=-0.1050 w(A4)=-0.1917 w(A5)=-0.0345 w(A6)=-0.2568 w(A7)=-0.2866 w(A8)=-0.2057 w(A9)=-0.1862 w(A10)=-0.1438 w(A11)=-0.0787 w(A12)=-0.3664 w(A13)=-0.5202 output=0.2801
After Iteration 51: w(A1)=-0.1335 w(A2)=-0.0294 w(A3)=-0.1233 w(A4)=-0.1917 w(A5)=-0.0528 w(A6)=-0.2568 w(A7)=-0.2866 w(A8)=-0.2240 w(A9)=-0.1862 w(A10)=-0.1438 w(A11)=-0.0787 w(A12)=-0.3664 w(A13)=-0.5385 output=0.2753
After Iteration 52: w(A1)=-0.1335 w(A2)=-0.0294 w(A3)=-0.1233 w(A4)=-0.1917 w(A5)=-0.0528 w(A6)=-0.2221 w(A7)=-0.2866 w(A8)=-0.1893 w(A9)=-0.1862 w(A10)=-0.1091 w(A11)=-0.0440 w(A12)=-0.3316 w(A13)=-0.5038 output=0.1979
After Iteration 53: w(A1)=-0.1335 w(A2)=-0.0358 w(A3)=-0.1233 w(A4)=-0.1917 w(A5)=-0.0593 w(A6)=-0.2285 w(A7)=-0.2931 w(A8)=-0.1893 w(A9)=-0.1927 w(A10)=-0.1091 w(A11)=-0.0504 w(A12)=-0.3381 w(A13)=-0.5102 output=0.1534
After Iteration 54: w(A1)=-0.1335 w(A2)=-0.0358 w(A3)=-0.1233 w(A4)=-0.1917 w(A5)=-0.0660 w(A6)=-0.2352 w(A7)=-0.2998 w(A8)=-0.1960 w(A9)=-0.1994 w(A10)=-0.1158 w(A11)=-0.0571 w(A12)=-0.3381 w(A13)=-0.5169 output=0.1563
After Iteration 55: w(A1)=-0.1335 w(A2)=-0.0358 w(A3)=-0.1268 w(A4)=-0.1953 w(A5)=-0.0696 w(A6)=-0.2388 w(A7)=-0.3034 w(A8)=-0.1960 w(A9)=-0.2030 w(A10)=-0.1158 w(A11)=-0.0607 w(A12)=-0.3417 w(A13)=-0.5205 output=0.1131
After Iteration 56: w(A1)=-0.1335 w(A2)=-0.0464 w(A3)=-0.1268 w(A4)=-0.1953 w(A5)=-0.0696 w(A6)=-0.2388 w(A7)=-0.3140 w(A8)=-0.1960 w(A9)=-0.2030 w(A10)=-0.1263 w(A11)=-0.0607 w(A12)=-0.3522 w(A13)=-0.5311 output=0.2026
After Iteration 57: w(A1)=-0.1335 w(A2)=-0.0464 w(A3)=-0.1400 w(A4)=-0.1953 w(A5)=-0.0827 w(A6)=-0.2520 w(A7)=-0.3140 w(A8)=-0.1960 w(A9)=-0.2030 w(A10)=-0.1395 w(A11)=-0.0738 w(A12)=-0.3522 w(A13)=-0.5442 output=0.2258
After Iteration 58: w(A1)=-0.0962 w(A2)=-0.0464 w(A3)=-0.1027 w(A4)=-0.1953 w(A5)=-0.0454 w(A6)=-0.2520 w(A7)=-0.3140 w(A8)=-0.1960 w(A9)=-0.1657 w(A10)=-0.1395 w(A11)=-0.0738 w(A12)=-0.3149 w(A13)=-0.5069 output=0.2259
After Iteration 59: w(A1)=-0.0962 w(A2)=-0.0464 w(A3)=-0.1027 w(A4)=-0.1561 w(A5)=-0.0454 w(A6)=-0.2128 w(A7)=-0.3140 w(A8)=-0.1960 w(A9)=-0.1265 w(A10)=-0.1003 w(A11)=-0.0347 w(A12)=-0.3149 w(A13)=-0.4677 output=0.2501
After Iteration 60: w(A1)=-0.0962 w(A2)=-0.0556 w(A3)=-0.1027 w(A4)=-0.1561 w(A5)=-0.0546 w(A6)=-0.2128 w(A7)=-0.3231 w(A8)=-0.2052 w(A9)=-0.1265 w(A10)=-0.1003 w(A11)=-0.0438 w(A12)=-0.3241 w(A13)=-0.4769 output=0.1849
After Iteration 61: w(A1)=-0.0962 w(A2)=-0.0556 w(A3)=-0.1093 w(A4)=-0.1561 w(A5)=-0.0612 w(A6)=-0.2194 w(A7)=-0.3298 w(A8)=-0.2052 w(A9)=-0.1265 w(A10)=-0.1069 w(A11)=-0.0505 w(A12)=-0.3307 w(A13)=-0.4835 output=0.1556
After Iteration 62: w(A1)=-0.1036 w(A2)=-0.0630 w(A3)=-0.1167 w(A4)=-0.1561 w(A5)=-0.0612 w(A6)=-0.2194 w(A7)=-0.3372 w(A8)=-0.2126 w(A9)=-0.1339 w(A10)=-0.1143 w(A11)=-0.0579 w(A12)=-0.3307 w(A13)=-0.4910 output=0.1638
After Iteration 63: w(A1)=-0.0630 w(A2)=-0.0630 w(A3)=-0.0761 w(A4)=-0.1561 w(A5)=-0.0612 w(A6)=-0.2194 w(A7)=-0.3372 w(A8)=-0.1720 w(A9)=-0.0933 w(A10)=-0.0737 w(A11)=-0.0173 w(A12)=-0.3307 w(A13)=-0.4503 output=0.2798
After Iteration 64: w(A1)=-0.0630 w(A2)=-0.0781 w(A3)=-0.0761 w(A4)=-0.1712 w(A5)=-0.0763 w(A6)=-0.2345 w(A7)=-0.3372 w(A8)=-0.1720 w(A9)=-0.1083 w(A10)=-0.0737 w(A11)=-0.0173 w(A12)=-0.3307 w(A13)=-0.4654 output=0.2435
After Iteration 65: w(A1)=-0.0630 w(A2)=-0.0373 w(A3)=-0.0353 w(A4)=-0.1304 w(A5)=-0.0763 w(A6)=-0.2345 w(A7)=-0.2964 w(A8)=-0.1720 w(A9)=-0.1083 w(A10)=-0.0329 w(A11)=0.0235 w(A12)=-0.3307 w(A13)=-0.4246 output=0.2822
After Iteration 66: w(A1)=-0.0630 w(A2)=-0.0482 w(A3)=-0.0353 w(A4)=-0.1413 w(A5)=-0.0763 w(A6)=-0.2453 w(A7)=-0.3073 w(A8)=-0.1828 w(A9)=-0.1083 w(A10)=-0.0329 w(A11)=0.0235 w(A12)=-0.3307 w(A13)=-0.4355 output=0.2042
After Iteration 67: w(A1)=-0.0793 w(A2)=-0.0482 w(A3)=-0.0517 w(A4)=-0.1413 w(A5)=-0.0927 w(A6)=-0.2453 w(A7)=-0.3073 w(A8)=-0.1828 w(A9)=-0.1083 w(A10)=-0.0493 w(A11)=0.0235 w(A12)=-0.3471 w(A13)=-0.4519 output=0.2550
After Iteration 68: w(A1)=-0.0444 w(A2)=-0.0132 w(A3)=-0.0517 w(A4)=-0.1413 w(A5)=-0.0577 w(A6)=-0.2104 w(A7)=-0.2724 w(A8)=-0.1828 w(A9)=-0.1083 w(A10)=-0.0144 w(A11)=0.0584 w(A12)=-0.3122 w(A13)=-0.4169 output=0.2170
After Iteration 69: w(A1)=-0.0606 w(A2)=-0.0132 w(A3)=-0.0679 w(A4)=-0.1413 w(A5)=-0.0739 w(A6)=-0.2104 w(A7)=-0.2886 w(A8)=-0.1991 w(A9)=-0.1083 w(A10)=-0.0306 w(A11)=0.0422 w(A12)=-0.3122 w(A13)=-0.4331 output=0.2476
After Iteration 70: w(A1)=-0.0775 w(A2)=-0.0301 w(A3)=-0.0679 w(A4)=-0.1581 w(A5)=-0.0739 w(A6)=-0.2104 w(A7)=-0.2886 w(A8)=-0.1991 w(A9)=-0.1083 w(A10)=-0.0474 w(A11)=0.0254 w(A12)=-0.3290 w(A13)=-0.4500 output=0.2560
After Iteration 71: w(A1)=-0.0956 w(A2)=-0.0483 w(A3)=-0.0861 w(A4)=-0.1581 w(A5)=-0.0739 w(A6)=-0.2286 w(A7)=-0.2886 w(A8)=-0.1991 w(A9)=-0.1083 w(A10)=-0.0656 w(A11)=0.0254 w(A12)=-0.3290 w(A13)=-0.4681 output=0.2705
After Iteration 72: w(A1)=-0.0522 w(A2)=-0.0483 w(A3)=-0.0427 w(A4)=-0.1147 w(A5)=-0.0305 w(A6)=-0.2286 w(A7)=-0.2886 w(A8)=-0.1991 w(A9)=-0.0650 w(A10)=-0.0656 w(A11)=0.0688 w(A12)=-0.3290 w(A13)=-0.4247 output=0.3405
After Iteration 73: w(A1)=-0.0661 w(A2)=-0.0621 w(A3)=-0.0427 w(A4)=-0.1147 w(A5)=-0.0444 w(A6)=-0.2286 w(A7)=-0.3025 w(A8)=-0.2129 w(A9)=-0.0788 w(A10)=-0.0656 w(A11)=0.0688 w(A12)=-0.3290 w(A13)=-0.4386 output=0.2305
After Iteration 74: w(A1)=-0.0774 w(A2)=-0.0621 w(A3)=-0.0540 w(A4)=-0.1147 w(A5)=-0.0557 w(A6)=-0.2399 w(A7)=-0.3138 w(A8)=-0.2129 w(A9)=-0.0901 w(A10)=-0.0769 w(A11)=0.0688 w(A12)=-0.3290 w(A13)=-0.4499 output=0.2046
After Iteration 75: w(A1)=-0.0774 w(A2)=-0.0621 w(A3)=-0.0622 w(A4)=-0.1147 w(A5)=-0.0640 w(A6)=-0.2481 w(A7)=-0.3220 w(A8)=-0.2212 w(A9)=-0.0984 w(A10)=-0.0851 w(A11)=0.0688 w(A12)=-0.3290 w(A13)=-0.4582 output=0.1738
After Iteration 76: w(A1)=-0.0774 w(A2)=-0.0621 w(A3)=-0.0740 w(A4)=-0.1147 w(A5)=-0.0757 w(A6)=-0.2599 w(A7)=-0.3220 w(A8)=-0.2329 w(A9)=-0.1101 w(A10)=-0.0969 w(A11)=0.0688 w(A12)=-0.3290 w(A13)=-0.4699 output=0.2109
After Iteration 77: w(A1)=-0.0893 w(A2)=-0.0621 w(A3)=-0.0740 w(A4)=-0.1266 w(A5)=-0.0876 w(A6)=-0.2718 w(A7)=-0.3220 w(A8)=-0.2448 w(A9)=-0.1101 w(A10)=-0.0969 w(A11)=0.0688 w(A12)=-0.3290 w(A13)=-0.4818 output=0.2139
After Iteration 78: w(A1)=-0.0968 w(A2)=-0.0621 w(A3)=-0.0815 w(A4)=-0.1342 w(A5)=-0.0952 w(A6)=-0.2718 w(A7)=-0.3296 w(A8)=-0.2448 w(A9)=-0.1177 w(A10)=-0.0969 w(A11)=0.0612 w(A12)=-0.3366 w(A13)=-0.4894 output=0.1652
After Iteration 79: w(A1)=-0.0968 w(A2)=-0.0621 w(A3)=-0.0815 w(A4)=-0.1342 w(A5)=-0.1071 w(A6)=-0.2836 w(A7)=-0.3296 w(A8)=-0.2448 w(A9)=-0.1177 w(A10)=-0.1088 w(A11)=0.0493 w(A12)=-0.3485 w(A13)=-0.5013 output=0.2142
After Iteration 80: w(A1)=-0.0968 w(A2)=-0.0206 w(A3)=-0.0399 w(A4)=-0.1342 w(A5)=-0.1071 w(A6)=-0.2836 w(A7)=-0.2880 w(A8)=-0.2448 w(A9)=-0.0761 w(A10)=-0.0672 w(A11)=0.0909 w(A12)=-0.3485 w(A13)=-0.4597 output=0.2972
After Iteration 81: w(A1)=-0.1120 w(A2)=-0.0357 w(A3)=-0.0399 w(A4)=-0.1342 w(A5)=-0.1222 w(A6)=-0.2836 w(A7)=-0.3031 w(A8)=-0.2448 w(A9)=-0.0761 w(A10)=-0.0823 w(A11)=0.0909 w(A12)=-0.3485 w(A13)=-0.4748 output=0.2441
After Iteration 82: w(A1)=-0.1251 w(A2)=-0.0357 w(A3)=-0.0399 w(A4)=-0.1342 w(A5)=-0.1354 w(A6)=-0.2968 w(A7)=-0.3031 w(A8)=-0.2448 w(A9)=-0.0893 w(A10)=-0.0955 w(A11)=0.0909 w(A12)=-0.3485 w(A13)=-0.4880 output=0.2262
After Iteration 83: w(A1)=-0.1251 w(A2)=-0.0516 w(A3)=-0.0399 w(A4)=-0.1501 w(A5)=-0.1512 w(A6)=-0.3127 w(A7)=-0.3031 w(A8)=-0.2448 w(A9)=-0.0893 w(A10)=-0.0955 w(A11)=0.0750 w(A12)=-0.3485 w(A13)=-0.5039 output=0.2508
After Iteration 84: w(A1)=-0.1251 w(A2)=-0.0575 w(A3)=-0.0459 w(A4)=-0.1501 w(A5)=-0.1572 w(A6)=-0.3186 w(A7)=-0.3091 w(A8)=-0.2448 w(A9)=-0.0893 w(A10)=-0.0955 w(A11)=0.0750 w(A12)=-0.3544 w(A13)=-0.5098 output=0.1477
After Iteration 85: w(A1)=-0.1251 w(A2)=-0.0661 w(A3)=-0.0459 w(A4)=-0.1587 w(A5)=-0.1658 w(A6)=-0.3186 w(A7)=-0.3177 w(A8)=-0.2448 w(A9)=-0.0893 w(A10)=-0.0955 w(A11)=0.0664 w(A12)=-0.3631 w(A13)=-0.5184 output=0.1790
After Iteration 86: w(A1)=-0.1303 w(A2)=-0.0713 w(A3)=-0.0459 w(A4)=-0.1639 w(A5)=-0.1658 w(A6)=-0.3239 w(A7)=-0.3177 w(A8)=-0.2500 w(A9)=-0.0893 w(A10)=-0.0955 w(A11)=0.0664 w(A12)=-0.3683 w(A13)=-0.5236 output=0.1381
After Iteration 87: w(A1)=-0.1392 w(A2)=-0.0802 w(A3)=-0.0548 w(A4)=-0.1639 w(A5)=-0.1658 w(A6)=-0.3328 w(A7)=-0.3177 w(A8)=-0.2589 w(A9)=-0.0893 w(A10)=-0.1044 w(A11)=0.0664 w(A12)=-0.3683 w(A13)=-0.5325 output=0.1820
After Iteration 88: w(A1)=-0.1454 w(A2)=-0.0864 w(A3)=-0.0548 w(A4)=-0.1639 w(A5)=-0.1719 w(A6)=-0.3328 w(A7)=-0.3238 w(A8)=-0.2589 w(A9)=-0.0954 w(A10)=-0.1044 w(A11)=0.0664 w(A12)=-0.3744 w(A13)=-0.5386 output=0.1498
After Iteration 89: w(A1)=-0.1057 w(A2)=-0.0864 w(A3)=-0.0548 w(A4)=-0.1639 w(A5)=-0.1719 w(A6)=-0.2931 w(A7)=-0.3238 w(A8)=-0.2193 w(A9)=-0.0558 w(A10)=-0.1044 w(A11)=0.1060 w(A12)=-0.3744 w(A13)=-0.4990 output=0.2560
After Iteration 90: w(A1)=-0.1112 w(A2)=-0.0864 w(A3)=-0.0603 w(A4)=-0.1694 w(A5)=-0.1719 w(A6)=-0.2986 w(A7)=-0.3238 w(A8)=-0.2248 w(A9)=-0.0613 w(A10)=-0.1099 w(A11)=0.1005 w(A12)=-0.3799 w(A13)=-0.5045 output=0.1395
After Iteration 91: w(A1)=-0.0807 w(A2)=-0.0558 w(A3)=-0.0297 w(A4)=-0.1388 w(A5)=-0.1719 w(A6)=-0.2681 w(A7)=-0.3238 w(A8)=-0.1943 w(A9)=-0.0613 w(A10)=-0.0793 w(A11)=0.1311 w(A12)=-0.3493 w(A13)=-0.4740 output=0.1767
After Iteration 92: w(A1)=-0.0807 w(A2)=-0.0558 w(A3)=-0.0297 w(A4)=-0.1388 w(A5)=-0.1793 w(A6)=-0.2754 w(A7)=-0.3311 w(A8)=-0.2016 w(A9)=-0.0686 w(A10)=-0.0867 w(A11)=0.1311 w(A12)=-0.3493 w(A13)=-0.4813 output=0.1647
After Iteration 93: w(A1)=-0.0807 w(A2)=-0.0558 w(A3)=-0.0297 w(A4)=-0.1388 w(A5)=-0.1433 w(A6)=-0.2395 w(A7)=-0.2952 w(A8)=-0.1656 w(A9)=-0.0326 w(A10)=-0.0867 w(A11)=0.1311 w(A12)=-0.3493 w(A13)=-0.4453 output=0.2106
After Iteration 94: w(A1)=-0.0891 w(A2)=-0.0558 w(A3)=-0.0297 w(A4)=-0.1473 w(A5)=-0.1433 w(A6)=-0.2395 w(A7)=-0.3037 w(A8)=-0.1741 w(A9)=-0.0326 w(A10)=-0.0867 w(A11)=0.1311 w(A12)=-0.3578 w(A13)=-0.4538 output=0.1786
After Iteration 95: w(A1)=-0.0479 w(A2)=-0.0145 w(A3)=-0.0297 w(A4)=-0.1060 w(A5)=-0.1433 w(A6)=-0.2395 w(A7)=-0.2624 w(A8)=-0.1328 w(A9)=-0.0326 w(A10)=-0.0454 w(A11)=0.1724 w(A12)=-0.3578 w(A13)=-0.4125 output=0.2996
After Iteration 96: w(A1)=-0.0040 w(A2)=0.0293 w(A3)=0.0141 w(A4)=-0.1060 w(A5)=-0.1433 w(A6)=-0.2395 w(A7)=-0.2624 w(A8)=-0.0890 w(A9)=0.0112 w(A10)=-0.0454 w(A11)=0.2162 w(A12)=-0.3578 w(A13)=-0.3687 output=0.4525
After Iteration 97: w(A1)=-0.0040 w(A2)=0.0293 w(A3)=0.0141 w(A4)=-0.1060 w(A5)=-0.1433 w(A6)=-0.2606 w(A7)=-0.2835 w(A8)=-0.1101 w(A9)=0.0112 w(A10)=-0.0454 w(A11)=0.1951 w(A12)=-0.3578 w(A13)=-0.3898 output=0.2997
After Iteration 98: w(A1)=-0.0040 w(A2)=0.0293 w(A3)=0.0141 w(A4)=-0.1060 w(A5)=-0.1433 w(A6)=-0.2606 w(A7)=-0.2835 w(A8)=-0.1101 w(A9)=0.0112 w(A10)=-0.0454 w(A11)=0.1951 w(A12)=-0.3788 w(A13)=-0.4108 output=0.3122
After Iteration 99: w(A1)=-0.0040 w(A2)=0.0716 w(A3)=0.0564 w(A4)=-0.0637 w(A5)=-0.1433 w(A6)=-0.2606 w(A7)=-0.2835 w(A8)=-0.1101 w(A9)=0.0535 w(A10)=-0.0031 w(A11)=0.2374 w(A12)=-0.3788 w(A13)=-0.3685 output=0.4959
After Iteration 100: w(A1)=-0.0040 w(A2)=0.0450 w(A3)=0.0564 w(A4)=-0.0637 w(A5)=-0.1699 w(A6)=-0.2606 w(A7)=-0.2835 w(A8)=-0.1367 w(A9)=0.0269 w(A10)=-0.0297 w(A11)=0.2374 w(A12)=-0.3788 w(A13)=-0.3952 output=0.3408
After Iteration 101: w(A1)=0.0404 w(A2)=0.0894 w(A3)=0.1008 w(A4)=-0.0637 w(A5)=-0.1255 w(A6)=-0.2162 w(A7)=-0.2835 w(A8)=-0.0923 w(A9)=0.0269 w(A10)=0.0147 w(A11)=0.2818 w(A12)=-0.3788 w(A13)=-0.3507 output=0.4360
After Iteration 102: w(A1)=0.0404 w(A2)=0.0673 w(A3)=0.0787 w(A4)=-0.0859 w(A5)=-0.1255 w(A6)=-0.2162 w(A7)=-0.3056 w(A8)=-0.1144 w(A9)=0.0269 w(A10)=0.0147 w(A11)=0.2597 w(A12)=-0.4010 w(A13)=-0.3729 output=0.2944
After Iteration 103: w(A1)=0.0829 w(A2)=0.1098 w(A3)=0.0787 w(A4)=-0.0859 w(A5)=-0.0830 w(A6)=-0.1737 w(A7)=-0.3056 w(A8)=-0.1144 w(A9)=0.0269 w(A10)=0.0572 w(A11)=0.3022 w(A12)=-0.4010 w(A13)=-0.3304 output=0.4912
After Iteration 104: w(A1)=0.0829 w(A2)=0.1098 w(A3)=0.0787 w(A4)=-0.0859 w(A5)=-0.0830 w(A6)=-0.1737 w(A7)=-0.3266 w(A8)=-0.1354 w(A9)=0.0269 w(A10)=0.0572 w(A11)=0.3022 w(A12)=-0.4010 w(A13)=-0.3513 output=0.3072
After Iteration 105: w(A1)=0.0584 w(A2)=0.0853 w(A3)=0.0542 w(A4)=-0.1104 w(A5)=-0.1075 w(A6)=-0.1737 w(A7)=-0.3266 w(A8)=-0.1354 w(A9)=0.0269 w(A10)=0.0327 w(A11)=0.3022 w(A12)=-0.4254 w(A13)=-0.3758 output=0.3125
After Iteration 106: w(A1)=0.0584 w(A2)=0.0617 w(A3)=0.0542 w(A4)=-0.1340 w(A5)=-0.1311 w(A6)=-0.1737 w(A7)=-0.3266 w(A8)=-0.1354 w(A9)=0.0269 w(A10)=0.0327 w(A11)=0.2786 w(A12)=-0.4490 w(A13)=-0.3994 output=0.3158
After Iteration 107: w(A1)=0.0584 w(A2)=0.0617 w(A3)=0.0542 w(A4)=-0.1340 w(A5)=-0.1634 w(A6)=-0.1737 w(A7)=-0.3266 w(A8)=-0.1354 w(A9)=0.0269 w(A10)=0.0327 w(A11)=0.2463 w(A12)=-0.4490 w(A13)=-0.4317 output=0.4137
After Iteration 108: w(A1)=0.0584 w(A2)=0.0525 w(A3)=0.0450 w(A4)=-0.1431 w(A5)=-0.1725 w(A6)=-0.1828 w(A7)=-0.3358 w(A8)=-0.1445 w(A9)=0.0269 w(A10)=0.0235 w(A11)=0.2371 w(A12)=-0.4582 w(A13)=-0.4409 output=0.1795
After Iteration 109: w(A1)=0.0515 w(A2)=0.0525 w(A3)=0.0450 w(A4)=-0.1501 w(A5)=-0.1795 w(A6)=-0.1828 w(A7)=-0.3427 w(A8)=-0.1515 w(A9)=0.0199 w(A10)=0.0235 w(A11)=0.2371 w(A12)=-0.4652 w(A13)=-0.4478 output=0.1591
After Iteration 110: w(A1)=0.0515 w(A2)=0.0376 w(A3)=0.0450 w(A4)=-0.1501 w(A5)=-0.1795 w(A6)=-0.1977 w(A7)=-0.3576 w(A8)=-0.1664 w(A9)=0.0051 w(A10)=0.0235 w(A11)=0.2371 w(A12)=-0.4652 w(A13)=-0.4627 output=0.2420
After Iteration 111: w(A1)=0.0515 w(A2)=0.0183 w(A3)=0.0450 w(A4)=-0.1501 w(A5)=-0.1795 w(A6)=-0.2170 w(A7)=-0.3576 w(A8)=-0.1664 w(A9)=0.0051 w(A10)=0.0042 w(A11)=0.2178 w(A12)=-0.4845 w(A13)=-0.4820 output=0.2802
After Iteration 112: w(A1)=0.0515 w(A2)=0.0183 w(A3)=0.0450 w(A4)=-0.1501 w(A5)=-0.1889 w(A6)=-0.2265 w(A7)=-0.3670 w(A8)=-0.1758 w(A9)=0.0051 w(A10)=-0.0052 w(A11)=0.2178 w(A12)=-0.4845 w(A13)=-0.4915 output=0.1892
After Iteration 113: w(A1)=0.0397 w(A2)=0.0183 w(A3)=0.0333 w(A4)=-0.1501 w(A5)=-0.2007 w(A6)=-0.2265 w(A7)=-0.3670 w(A8)=-0.1875 w(A9)=-0.0067 w(A10)=-0.0052 w(A11)=0.2178 w(A12)=-0.4962 w(A13)=-0.5032 output=0.2106
After Iteration 114: w(A1)=0.0164 w(A2)=0.0183 w(A3)=0.0100 w(A4)=-0.1501 w(A5)=-0.2240 w(A6)=-0.2265 w(A7)=-0.3670 w(A8)=-0.1875 w(A9)=-0.0300 w(A10)=-0.0286 w(A11)=0.2178 w(A12)=-0.4962 w(A13)=-0.5266 output=0.3137
After Iteration 115: w(A1)=0.0164 w(A2)=0.0183 w(A3)=0.0100 w(A4)=-0.1056 w(A5)=-0.2240 w(A6)=-0.2265 w(A7)=-0.3670 w(A8)=-0.1431 w(A9)=-0.0300 w(A10)=0.0159 w(A11)=0.2622 w(A12)=-0.4962 w(A13)=-0.4821 output=0.3887
After Iteration 116: w(A1)=0.0164 w(A2)=0.0183 w(A3)=0.0100 w(A4)=-0.1134 w(A5)=-0.2318 w(A6)=-0.2343 w(A7)=-0.3748 w(A8)=-0.1509 w(A9)=-0.0300 w(A10)=0.0081 w(A11)=0.2622 w(A12)=-0.4962 w(A13)=-0.4899 output=0.1698
After Iteration 117: w(A1)=0.0035 w(A2)=0.0054 w(A3)=-0.0029 w(A4)=-0.1134 w(A5)=-0.2318 w(A6)=-0.2471 w(A7)=-0.3748 w(A8)=-0.1509 w(A9)=-0.0300 w(A10)=-0.0048 w(A11)=0.2622 w(A12)=-0.5091 w(A13)=-0.5028 output=0.2213
After Iteration 118: w(A1)=-0.0139 w(A2)=-0.0120 w(A3)=-0.0029 w(A4)=-0.1134 w(A5)=-0.2318 w(A6)=-0.2471 w(A7)=-0.3748 w(A8)=-0.1683 w(A9)=-0.0474 w(A10)=-0.0048 w(A11)=0.2448 w(A12)=-0.5265 w(A13)=-0.5202 output=0.2605
After Iteration 119: w(A1)=0.0306 w(A2)=0.0325 w(A3)=0.0415 w(A4)=-0.0690 w(A5)=-0.1873 w(A6)=-0.2471 w(A7)=-0.3748 w(A8)=-0.1683 w(A9)=-0.0030 w(A10)=-0.0048 w(A11)=0.2893 w(A12)=-0.5265 w(A13)=-0.4757 output=0.4155
After Iteration 120: w(A1)=0.0306 w(A2)=0.0325 w(A3)=0.0770 w(A4)=-0.0690 w(A5)=-0.1519 w(A6)=-0.2117 w(A7)=-0.3748 w(A8)=-0.1328 w(A9)=-0.0030 w(A10)=0.0306 w(A11)=0.2893 w(A12)=-0.4910 w(A13)=-0.4403 output=0.2108
After Iteration 121: w(A1)=0.0306 w(A2)=0.0073 w(A3)=0.0770 w(A4)=-0.0690 w(A5)=-0.1771 w(A6)=-0.2117 w(A7)=-0.3748 w(A8)=-0.1328 w(A9)=-0.0281 w(A10)=0.0306 w(A11)=0.2893 w(A12)=-0.4910 w(A13)=-0.4655 output=0.3400
After Iteration 122: w(A1)=0.0306 w(A2)=-0.0000 w(A3)=0.0770 w(A4)=-0.0763 w(A5)=-0.1771 w(A6)=-0.2190 w(A7)=-0.3821 w(A8)=-0.1328 w(A9)=-0.0281 w(A10)=0.0233 w(A11)=0.2893 w(A12)=-0.4984 w(A13)=-0.4728 output=0.1645
After Iteration 123: w(A1)=0.0239 w(A2)=-0.0067 w(A3)=0.0702 w(A4)=-0.0830 w(A5)=-0.1838 w(A6)=-0.2190 w(A7)=-0.3889 w(A8)=-0.1396 w(A9)=-0.0281 w(A10)=0.0233 w(A11)=0.2893 w(A12)=-0.5051 w(A13)=-0.4795 output=0.1555
After Iteration 124: w(A1)=0.0124 w(A2)=-0.0067 w(A3)=0.0588 w(A4)=-0.0944 w(A5)=-0.1952 w(A6)=-0.2304 w(A7)=-0.4003 w(A8)=-0.1396 w(A9)=-0.0281 w(A10)=0.0233 w(A11)=0.2893 w(A12)=-0.5051 w(A13)=-0.4909 output=0.2075
After Iteration 125: w(A1)=0.0124 w(A2)=-0.0150 w(A3)=0.0588 w(A4)=-0.1026 w(A5)=-0.1952 w(A6)=-0.2387 w(A7)=-0.4003 w(A8)=-0.1478 w(A9)=-0.0364 w(A10)=0.0233 w(A11)=0.2893 w(A12)=-0.5133 w(A13)=-0.4991 output=0.1747
After Iteration 126: w(A1)=0.0049 w(A2)=-0.0150 w(A3)=0.0588 w(A4)=-0.1102 w(A5)=-0.2027 w(A6)=-0.2387 w(A7)=-0.4078 w(A8)=-0.1553 w(A9)=-0.0364 w(A10)=0.0233 w(A11)=0.2818 w(A12)=-0.5208 w(A13)=-0.5066 output=0.1657
After Iteration 127: w(A1)=0.0049 w(A2)=-0.0150 w(A3)=0.0480 w(A4)=-0.1102 w(A5)=-0.2136 w(A6)=-0.2495 w(A7)=-0.4078 w(A8)=-0.1661 w(A9)=-0.0472 w(A10)=0.0124 w(A11)=0.2709 w(A12)=-0.5317 w(A13)=-0.5175 output=0.1987
After Iteration 128: w(A1)=0.0024 w(A2)=-0.0150 w(A3)=0.0480 w(A4)=-0.1127 w(A5)=-0.2161 w(A6)=-0.2520 w(A7)=-0.4103 w(A8)=-0.1687 w(A9)=-0.0497 w(A10)=0.0124 w(A11)=0.2709 w(A12)=-0.5342 w(A13)=-0.5200 output=0.0944
After Iteration 129: w(A1)=0.0024 w(A2)=0.0101 w(A3)=0.0480 w(A4)=-0.1127 w(A5)=-0.1911 w(A6)=-0.2270 w(A7)=-0.3852 w(A8)=-0.1436 w(A9)=-0.0247 w(A10)=0.0375 w(A11)=0.2709 w(A12)=-0.5091 w(A13)=-0.4950 output=0.1270
After Iteration 130: w(A1)=-0.0148 w(A2)=-0.0071 w(A3)=0.0307 w(A4)=-0.1299 w(A5)=-0.1911 w(A6)=-0.2270 w(A7)=-0.3852 w(A8)=-0.1609 w(A9)=-0.0247 w(A10)=0.0375 w(A11)=0.2537 w(A12)=-0.5264 w(A13)=-0.5122 output=0.2560
After Iteration 131: w(A1)=-0.0148 w(A2)=0.0302 w(A3)=0.0681 w(A4)=-0.0926 w(A5)=-0.1537 w(A6)=-0.2270 w(A7)=-0.3479 w(A8)=-0.1609 w(A9)=0.0126 w(A10)=0.0748 w(A11)=0.2910 w(A12)=-0.4891 w(A13)=-0.4749 output=0.2532
After Iteration 132: w(A1)=-0.0148 w(A2)=0.0302 w(A3)=0.0681 w(A4)=-0.0926 w(A5)=-0.1699 w(A6)=-0.2431 w(A7)=-0.3641 w(A8)=-0.1770 w(A9)=-0.0035 w(A10)=0.0587 w(A11)=0.2749 w(A12)=-0.4891 w(A13)=-0.4910 output=0.2469
After Iteration 133: w(A1)=-0.0254 w(A2)=0.0196 w(A3)=0.0681 w(A4)=-0.0926 w(A5)=-0.1804 w(A6)=-0.2537 w(A7)=-0.3641 w(A8)=-0.1770 w(A9)=-0.0035 w(A10)=0.0481 w(A11)=0.2749 w(A12)=-0.4996 w(A13)=-0.5016 output=0.1990
After Iteration 134: w(A1)=-0.0382 w(A2)=0.0196 w(A3)=0.0553 w(A4)=-0.1054 w(A5)=-0.1804 w(A6)=-0.2665 w(A7)=-0.3769 w(A8)=-0.1770 w(A9)=-0.0163 w(A10)=0.0481 w(A11)=0.2749 w(A12)=-0.4996 w(A13)=-0.5144 output=0.2206
After Iteration 135: w(A1)=-0.0382 w(A2)=0.0022 w(A3)=0.0553 w(A4)=-0.1229 w(A5)=-0.1979 w(A6)=-0.2839 w(A7)=-0.3769 w(A8)=-0.1945 w(A9)=-0.0338 w(A10)=0.0307 w(A11)=0.2574 w(A12)=-0.4996 w(A13)=-0.5318 output=0.2545
After Iteration 136: w(A1)=-0.0382 w(A2)=-0.0102 w(A3)=0.0429 w(A4)=-0.1229 w(A5)=-0.2102 w(A6)=-0.2963 w(A7)=-0.3769 w(A8)=-0.1945 w(A9)=-0.0338 w(A10)=0.0307 w(A11)=0.2450 w(A12)=-0.5120 w(A13)=-0.5442 output=0.2167
After Iteration 137: w(A1)=0.0028 w(A2)=0.0307 w(A3)=0.0429 w(A4)=-0.0819 w(A5)=-0.1693 w(A6)=-0.2554 w(A7)=-0.3769 w(A8)=-0.1535 w(A9)=0.0072 w(A10)=0.0307 w(A11)=0.2860 w(A12)=-0.5120 w(A13)=-0.5033 output=0.3022
After Iteration 138: w(A1)=0.0028 w(A2)=0.0740 w(A3)=0.0429 w(A4)=-0.0819 w(A5)=-0.1260 w(A6)=-0.2121 w(A7)=-0.3336 w(A8)=-0.1535 w(A9)=0.0504 w(A10)=0.0307 w(A11)=0.3292 w(A12)=-0.5120 w(A13)=-0.4600 output=0.3367
After Iteration 139: w(A1)=0.0028 w(A2)=0.0740 w(A3)=0.0268 w(A4)=-0.0980 w(A5)=-0.1421 w(A6)=-0.2282 w(A7)=-0.3336 w(A8)=-0.1535 w(A9)=0.0504 w(A10)=0.0146 w(A11)=0.3132 w(A12)=-0.5280 w(A13)=-0.4761 output=0.2464
After Iteration 140: w(A1)=0.0379 w(A2)=0.1091 w(A3)=0.0268 w(A4)=-0.0629 w(A5)=-0.1421 w(A6)=-0.1930 w(A7)=-0.2985 w(A8)=-0.1535 w(A9)=0.0504 w(A10)=0.0146 w(A11)=0.3132 w(A12)=-0.4929 w(A13)=-0.4409 output=0.2073
After Iteration 141: w(A1)=0.0812 w(A2)=0.1525 w(A3)=0.0701 w(A4)=-0.0195 w(A5)=-0.0988 w(A6)=-0.1930 w(A7)=-0.2985 w(A8)=-0.1535 w(A9)=0.0938 w(A10)=0.0146 w(A11)=0.3132 w(A12)=-0.4929 w(A13)=-0.3976 output=0.4705
After Iteration 142: w(A1)=0.0812 w(A2)=0.1964 w(A3)=0.0701 w(A4)=0.0244 w(A5)=-0.0548 w(A6)=-0.1491 w(A7)=-0.2985 w(A8)=-0.1095 w(A9)=0.0938 w(A10)=0.0586 w(A11)=0.3571 w(A12)=-0.4490 w(A13)=-0.3536 output=0.3824
After Iteration 143: w(A1)=0.0670 w(A2)=0.1964 w(A3)=0.0559 w(A4)=0.0102 w(A5)=-0.0690 w(A6)=-0.1491 w(A7)=-0.3127 w(A8)=-0.1238 w(A9)=0.0938 w(A10)=0.0586 w(A11)=0.3571 w(A12)=-0.4632 w(A13)=-0.3679 output=0.2309
After Iteration 144: w(A1)=0.1052 w(A2)=0.1964 w(A3)=0.0559 w(A4)=0.0102 w(A5)=-0.0690 w(A6)=-0.1109 w(A7)=-0.3127 w(A8)=-0.1238 w(A9)=0.0938 w(A10)=0.0967 w(A11)=0.3953 w(A12)=-0.4632 w(A13)=-0.3297 output=0.5390
After Iteration 145: w(A1)=0.1461 w(A2)=0.2374 w(A3)=0.0969 w(A4)=0.0511 w(A5)=-0.0690 w(A6)=-0.1109 w(A7)=-0.2718 w(A8)=-0.0828 w(A9)=0.1347 w(A10)=0.1376 w(A11)=0.3953 w(A12)=-0.4632 w(A13)=-0.2888 output=0.5400
After Iteration 146: w(A1)=0.1800 w(A2)=0.2374 w(A3)=0.0969 w(A4)=0.0851 w(A5)=-0.0351 w(A6)=-0.0770 w(A7)=-0.2718 w(A8)=-0.0489 w(A9)=0.1687 w(A10)=0.1376 w(A11)=0.4292 w(A12)=-0.4632 w(A13)=-0.2548 output=0.6100
After Iteration 147: w(A1)=0.1543 w(A2)=0.2374 w(A3)=0.0969 w(A4)=0.0593 w(A5)=-0.0608 w(A6)=-0.0770 w(A7)=-0.2718 w(A8)=-0.0746 w(A9)=0.1687 w(A10)=0.1376 w(A11)=0.4292 w(A12)=-0.4890 w(A13)=-0.2806 output=0.3337
After Iteration 148: w(A1)=0.1237 w(A2)=0.2374 w(A3)=0.0663 w(A4)=0.0593 w(A5)=-0.0914 w(A6)=-0.1075 w(A7)=-0.3023 w(A8)=-0.0746 w(A9)=0.1381 w(A10)=0.1376 w(A11)=0.3987 w(A12)=-0.5195 w(A13)=-0.3111 output=0.3532
After Iteration 149: w(A1)=0.1651 w(A2)=0.2787 w(A3)=0.0663 w(A4)=0.1007 w(A5)=-0.0500 w(A6)=-0.0662 w(A7)=-0.2609 w(A8)=-0.0746 w(A9)=0.1795 w(A10)=0.1790 w(A11)=0.4400 w(A12)=-0.4781 w(A13)=-0.2698 output=0.5543
After Iteration 150: w(A1)=0.1651 w(A2)=0.3001 w(A3)=0.0663 w(A4)=0.1221 w(A5)=-0.0500 w(A6)=-0.0662 w(A7)=-0.2609 w(A8)=-0.0746 w(A9)=0.2009 w(A10)=0.1790 w(A11)=0.4615 w(A12)=-0.4781 w(A13)=-0.2484 output=0.6977
After Iteration 151: w(A1)=0.1247 w(A2)=0.3001 w(A3)=0.0663 w(A4)=0.0817 w(A5)=-0.0904 w(A6)=-0.0662 w(A7)=-0.2609 w(A8)=-0.0746 w(A9)=0.2009 w(A10)=0.1386 w(A11)=0.4615 w(A12)=-0.4781 w(A13)=-0.2887 output=0.4915
After Iteration 152: w(A1)=0.1247 w(A2)=0.2779 w(A3)=0.0441 w(A4)=0.0817 w(A5)=-0.1126 w(A6)=-0.0884 w(A7)=-0.2832 w(A8)=-0.0969 w(A9)=0.1787 w(A10)=0.1386 w(A11)=0.4615 w(A12)=-0.5004 w(A13)=-0.3110 output=0.2907
After Iteration 153: w(A1)=0.1247 w(A2)=0.2779 w(A3)=0.0441 w(A4)=0.0557 w(A5)=-0.1387 w(A6)=-0.0884 w(A7)=-0.2832 w(A8)=-0.0969 w(A9)=0.1526 w(A10)=0.1126 w(A11)=0.4615 w(A12)=-0.5264 w(A13)=-0.3370 output=0.3360
After Iteration 154: w(A1)=0.1520 w(A2)=0.3052 w(A3)=0.0714 w(A4)=0.0830 w(A5)=-0.1114 w(A6)=-0.0884 w(A7)=-0.2559 w(A8)=-0.0969 w(A9)=0.1799 w(A10)=0.1399 w(A11)=0.4888 w(A12)=-0.5264 w(A13)=-0.3097 output=0.6777
After Iteration 155: w(A1)=0.1520 w(A2)=0.3052 w(A3)=0.1158 w(A4)=0.0830 w(A5)=-0.1114 w(A6)=-0.0441 w(A7)=-0.2559 w(A8)=-0.0525 w(A9)=0.2243 w(A10)=0.1843 w(A11)=0.4888 w(A12)=-0.4821 w(A13)=-0.2653 output=0.4208
After Iteration 156: w(A1)=0.1961 w(A2)=0.3492 w(A3)=0.1598 w(A4)=0.0830 w(A5)=-0.1114 w(A6)=-0.0000 w(A7)=-0.2119 w(A8)=-0.0085 w(A9)=0.2243 w(A10)=0.1843 w(A11)=0.4888 w(A12)=-0.4380 w(A13)=-0.2213 output=0.4565
After Iteration 157: w(A1)=0.1961 w(A2)=0.3492 w(A3)=0.1598 w(A4)=0.0830 w(A5)=-0.1360 w(A6)=-0.0247 w(A7)=-0.2119 w(A8)=-0.0085 w(A9)=0.2243 w(A10)=0.1596 w(A11)=0.4888 w(A12)=-0.4627 w(A13)=-0.2459 output=0.3297
After Iteration 158: w(A1)=0.1523 w(A2)=0.3055 w(A3)=0.1598 w(A4)=0.0830 w(A5)=-0.1360 w(A6)=-0.0684 w(A7)=-0.2119 w(A8)=-0.0522 w(A9)=0.2243 w(A10)=0.1159 w(A11)=0.4450 w(A12)=-0.4627 w(A13)=-0.2897 output=0.6476
After Iteration 159: w(A1)=0.1126 w(A2)=0.2657 w(A3)=0.1200 w(A4)=0.0433 w(A5)=-0.1360 w(A6)=-0.0684 w(A7)=-0.2516 w(A8)=-0.0920 w(A9)=0.2243 w(A10)=0.1159 w(A11)=0.4053 w(A12)=-0.5024 w(A13)=-0.3294 output=0.4431
After Iteration 160: w(A1)=0.1126 w(A2)=0.2426 w(A3)=0.0969 w(A4)=0.0433 w(A5)=-0.1591 w(A6)=-0.0915 w(A7)=-0.2747 w(A8)=-0.1151 w(A9)=0.2012 w(A10)=0.0928 w(A11)=0.4053 w(A12)=-0.5255 w(A13)=-0.3525 output=0.2922
After Iteration 161: w(A1)=0.1126 w(A2)=0.2426 w(A3)=0.0702 w(A4)=0.0165 w(A5)=-0.1591 w(A6)=-0.1183 w(A7)=-0.3015 w(A8)=-0.1419 w(A9)=0.1744 w(A10)=0.0928 w(A11)=0.4053 w(A12)=-0.5255 w(A13)=-0.3793 output=0.3363
After Iteration 162: w(A1)=0.1570 w(A2)=0.2426 w(A3)=0.0702 w(A4)=0.0609 w(A5)=-0.1147 w(A6)=-0.1183 w(A7)=-0.2571 w(A8)=-0.0974 w(A9)=0.2189 w(A10)=0.0928 w(A11)=0.4053 w(A12)=-0.5255 w(A13)=-0.3349 output=0.4092
After Iteration 163: w(A1)=0.1570 w(A2)=0.2426 w(A3)=0.0702 w(A4)=0.0609 w(A5)=-0.1147 w(A6)=-0.1183 w(A7)=-0.2571 w(A8)=-0.0974 w(A9)=0.1934 w(A10)=0.0673 w(A11)=0.4053 w(A12)=-0.5510 w(A13)=-0.3604 output=0.3428
After Iteration 164: w(A1)=0.1938 w(A2)=0.2794 w(A3)=0.0702 w(A4)=0.0609 w(A5)=-0.1147 w(A6)=-0.0815 w(A7)=-0.2571 w(A8)=-0.0974 w(A9)=0.2302 w(A10)=0.1041 w(A11)=0.4421 w(A12)=-0.5142 w(A13)=-0.3236 output=0.5819
After Iteration 165: w(A1)=0.1645 w(A2)=0.2794 w(A3)=0.0408 w(A4)=0.0609 w(A5)=-0.1147 w(A6)=-0.0815 w(A7)=-0.2864 w(A8)=-0.1268 w(A9)=0.2302 w(A10)=0.0748 w(A11)=0.4127 w(A12)=-0.5435 w(A13)=-0.3529 output=0.3505
After Iteration 166: w(A1)=0.1645 w(A2)=0.2794 w(A3)=0.0408 w(A4)=0.0609 w(A5)=-0.1147 w(A6)=-0.1137 w(A7)=-0.2864 w(A8)=-0.1590 w(A9)=0.1980 w(A10)=0.0426 w(A11)=0.4127 w(A12)=-0.5435 w(A13)=-0.3851 output=0.3972
After Iteration 167: w(A1)=0.1645 w(A2)=0.3131 w(A3)=0.0408 w(A4)=0.0609 w(A5)=-0.1147 w(A6)=-0.1137 w(A7)=-0.2864 w(A8)=-0.1253 w(A9)=0.1980 w(A10)=0.0762 w(A11)=0.4464 w(A12)=-0.5435 w(A13)=-0.3515 output=0.5888
After Iteration 168: w(A1)=0.1645 w(A2)=0.2945 w(A3)=0.0223 w(A4)=0.0609 w(A5)=-0.1332 w(A6)=-0.1137 w(A7)=-0.3049 w(A8)=-0.1253 w(A9)=0.1980 w(A10)=0.0577 w(A11)=0.4464 w(A12)=-0.5620 w(A13)=-0.3700 output=0.2698
After Iteration 169: w(A1)=0.1645 w(A2)=0.2945 w(A3)=-0.0122 w(A4)=0.0609 w(A5)=-0.1677 w(A6)=-0.1482 w(A7)=-0.3049 w(A8)=-0.1253 w(A9)=0.1980 w(A10)=0.0577 w(A11)=0.4118 w(A12)=-0.5620 w(A13)=-0.4045 output=0.4205
After Iteration 170: w(A1)=0.1645 w(A2)=0.2945 w(A3)=-0.0122 w(A4)=0.0609 w(A5)=-0.1677 w(A6)=-0.1583 w(A7)=-0.3151 w(A8)=-0.1355 w(A9)=0.1878 w(A10)=0.0577 w(A11)=0.4118 w(A12)=-0.5722 w(A13)=-0.4146 output=0.1966
After Iteration 171: w(A1)=0.1645 w(A2)=0.2655 w(A3)=-0.0122 w(A4)=0.0609 w(A5)=-0.1968 w(A6)=-0.1874 w(A7)=-0.3151 w(A8)=-0.1645 w(A9)=0.1588 w(A10)=0.0577 w(A11)=0.4118 w(A12)=-0.5722 w(A13)=-0.4437 output=0.3617
After Iteration 172: w(A1)=0.1645 w(A2)=0.2349 w(A3)=-0.0428 w(A4)=0.0303 w(A5)=-0.1968 w(A6)=-0.2180 w(A7)=-0.3457 w(A8)=-0.1951 w(A9)=0.1588 w(A10)=0.0271 w(A11)=0.3812 w(A12)=-0.5722 w(A13)=-0.4743 output=0.3538
After Iteration 173: w(A1)=0.1442 w(A2)=0.2145 w(A3)=-0.0428 w(A4)=0.0303 w(A5)=-0.1968 w(A6)=-0.2180 w(A7)=-0.3660 w(A8)=-0.2155 w(A9)=0.1588 w(A10)=0.0068 w(A11)=0.3609 w(A12)=-0.5925 w(A13)=-0.4946 output=0.2805
After Iteration 174: w(A1)=0.1870 w(A2)=0.2145 w(A3)=0.0000 w(A4)=0.0303 w(A5)=-0.1539 w(A6)=-0.2180 w(A7)=-0.3660 w(A8)=-0.1726 w(A9)=0.1588 w(A10)=0.0496 w(A11)=0.4038 w(A12)=-0.5497 w(A13)=-0.4518 output=0.3346
After Iteration 175: w(A1)=0.2221 w(A2)=0.2496 w(A3)=0.0000 w(A4)=0.0303 w(A5)=-0.1539 w(A6)=-0.1829 w(A7)=-0.3660 w(A8)=-0.1375 w(A9)=0.1939 w(A10)=0.0496 w(A11)=0.4388 w(A12)=-0.5497 w(A13)=-0.4167 output=0.5908
After Iteration 176: w(A1)=0.1857 w(A2)=0.2496 w(A3)=0.0000 w(A4)=-0.0061 w(A5)=-0.1539 w(A6)=-0.1829 w(A7)=-0.3660 w(A8)=-0.1739 w(A9)=0.1575 w(A10)=0.0133 w(A11)=0.4388 w(A12)=-0.5497 w(A13)=-0.4531 output=0.4313
After Iteration 177: w(A1)=0.1857 w(A2)=0.2235 w(A3)=0.0000 w(A4)=-0.0061 w(A5)=-0.1539 w(A6)=-0.1829 w(A7)=-0.3921 w(A8)=-0.1739 w(A9)=0.1314 w(A10)=0.0133 w(A11)=0.4128 w(A12)=-0.5757 w(A13)=-0.4792 output=0.3364
After Iteration 178: w(A1)=0.1528 w(A2)=0.1906 w(A3)=-0.0329 w(A4)=-0.0061 w(A5)=-0.1868 w(A6)=-0.1829 w(A7)=-0.3921 w(A8)=-0.1739 w(A9)=0.1314 w(A10)=0.0133 w(A11)=0.4128 w(A12)=-0.5757 w(A13)=-0.5121 output=0.4041
After Iteration 179: w(A1)=0.1307 w(A2)=0.1906 w(A3)=-0.0329 w(A4)=-0.0282 w(A5)=-0.1868 w(A6)=-0.2050 w(A7)=-0.3921 w(A8)=-0.1739 w(A9)=0.1314 w(A10)=-0.0089 w(A11)=0.3906 w(A12)=-0.5979 w(A13)=-0.5342 output=0.2988
After Iteration 180: w(A1)=0.1154 w(A2)=0.1906 w(A3)=-0.0482 w(A4)=-0.0435 w(A5)=-0.2021 w(A6)=-0.2203 w(A7)=-0.4073 w(A8)=-0.1892 w(A9)=0.1314 w(A10)=-0.0089 w(A11)=0.3754 w(A12)=-0.5979 w(A13)=-0.5495 output=0.2370
After Iteration 181: w(A1)=0.1154 w(A2)=0.1686 w(A3)=-0.0482 w(A4)=-0.0655 w(A5)=-0.2241 w(A6)=-0.2203 w(A7)=-0.4294 w(A8)=-0.2112 w(A9)=0.1094 w(A10)=-0.0309 w(A11)=0.3534 w(A12)=-0.5979 w(A13)=-0.5715 output=0.2888
After Iteration 182: w(A1)=0.1154 w(A2)=0.1686 w(A3)=-0.0482 w(A4)=-0.0751 w(A5)=-0.2338 w(A6)=-0.2203 w(A7)=-0.4294 w(A8)=-0.2112 w(A9)=0.0997 w(A10)=-0.0405 w(A11)=0.3534 w(A12)=-0.6075 w(A13)=-0.5811 output=0.1918
After Iteration 183: w(A1)=0.1154 w(A2)=0.1686 w(A3)=-0.0482 w(A4)=-0.0343 w(A5)=-0.2338 w(A6)=-0.2203 w(A7)=-0.4294 w(A8)=-0.2112 w(A9)=0.1406 w(A10)=-0.0405 w(A11)=0.3942 w(A12)=-0.6075 w(A13)=-0.5403 output=0.4901
After Iteration 184: w(A1)=0.0967 w(A2)=0.1499 w(A3)=-0.0482 w(A4)=-0.0530 w(A5)=-0.2525 w(A6)=-0.2203 w(A7)=-0.4481 w(A8)=-0.2112 w(A9)=0.1218 w(A10)=-0.0593 w(A11)=0.3942 w(A12)=-0.6075 w(A13)=-0.5590 output=0.2682
After Iteration 185: w(A1)=0.1408 w(A2)=0.1940 w(A3)=-0.0040 w(A4)=-0.0089 w(A5)=-0.2084 w(A6)=-0.1762 w(A7)=-0.4481 w(A8)=-0.2112 w(A9)=0.1218 w(A10)=-0.0152 w(A11)=0.4384 w(A12)=-0.6075 w(A13)=-0.5149 output=0.4615
After Iteration 186: w(A1)=0.1788 w(A2)=0.1940 w(A3)=0.0340 w(A4)=0.0291 w(A5)=-0.1704 w(A6)=-0.1762 w(A7)=-0.4481 w(A8)=-0.1732 w(A9)=0.1218 w(A10)=-0.0152 w(A11)=0.4384 w(A12)=-0.5696 w(A13)=-0.4769 output=0.2408
After Iteration 187: w(A1)=0.1493 w(A2)=0.1645 w(A3)=0.0340 w(A4)=-0.0004 w(A5)=-0.1999 w(A6)=-0.1762 w(A7)=-0.4481 w(A8)=-0.1732 w(A9)=0.1218 w(A10)=-0.0152 w(A11)=0.4089 w(A12)=-0.5990 w(A13)=-0.5064 output=0.3583
After Iteration 188: w(A1)=0.1315 w(A2)=0.1467 w(A3)=0.0340 w(A4)=-0.0004 w(A5)=-0.1999 w(A6)=-0.1940 w(A7)=-0.4659 w(A8)=-0.1732 w(A9)=0.1040 w(A10)=-0.0330 w(A11)=0.3911 w(A12)=-0.6169 w(A13)=-0.5242 output=0.2572
After Iteration 189: w(A1)=0.1315 w(A2)=0.1467 w(A3)=0.0762 w(A4)=-0.0004 w(A5)=-0.1576 w(A6)=-0.1940 w(A7)=-0.4659 w(A8)=-0.1309 w(A9)=0.1040 w(A10)=-0.0330 w(A11)=0.4334 w(A12)=-0.5746 w(A13)=-0.4819 output=0.3025
After Iteration 190: w(A1)=0.1241 w(A2)=0.1393 w(A3)=0.0762 w(A4)=-0.0004 w(A5)=-0.1650 w(A6)=-0.1940 w(A7)=-0.4734 w(A8)=-0.1383 w(A9)=0.1040 w(A10)=-0.0404 w(A11)=0.4334 w(A12)=-0.5820 w(A13)=-0.4893 output=0.1645
After Iteration 191: w(A1)=0.1241 w(A2)=0.1393 w(A3)=0.0762 w(A4)=-0.0004 w(A5)=-0.1768 w(A6)=-0.1940 w(A7)=-0.4734 w(A8)=-0.1383 w(A9)=0.1040 w(A10)=-0.0404 w(A11)=0.4334 w(A12)=-0.5938 w(A13)=-0.5011 output=0.2190
After Iteration 192: w(A1)=0.1161 w(A2)=0.1393 w(A3)=0.0762 w(A4)=-0.0083 w(A5)=-0.1848 w(A6)=-0.1940 w(A7)=-0.4813 w(A8)=-0.1383 w(A9)=0.0960 w(A10)=-0.0404 w(A11)=0.4334 w(A12)=-0.6017 w(A13)=-0.5091 output=0.1718
After Iteration 193: w(A1)=0.1020 w(A2)=0.1393 w(A3)=0.0762 w(A4)=-0.0083 w(A5)=-0.1848 w(A6)=-0.2081 w(A7)=-0.4813 w(A8)=-0.1383 w(A9)=0.0819 w(A10)=-0.0404 w(A11)=0.4334 w(A12)=-0.6159 w(A13)=-0.5232 output=0.2380
After Iteration 194: w(A1)=0.1020 w(A2)=0.1393 w(A3)=0.1152 w(A4)=0.0306 w(A5)=-0.1459 w(A6)=-0.2081 w(A7)=-0.4813 w(A8)=-0.0994 w(A9)=0.1208 w(A10)=-0.0015 w(A11)=0.4334 w(A12)=-0.5770 w(A13)=-0.4843 output=0.2608
After Iteration 195: w(A1)=0.0838 w(A2)=0.1211 w(A3)=0.0970 w(A4)=0.0124 w(A5)=-0.1459 w(A6)=-0.2263 w(A7)=-0.4813 w(A8)=-0.0994 w(A9)=0.1208 w(A10)=-0.0015 w(A11)=0.4334 w(A12)=-0.5952 w(A13)=-0.5025 output=0.2670
After Iteration 196: w(A1)=0.0732 w(A2)=0.1106 w(A3)=0.0864 w(A4)=0.0124 w(A5)=-0.1564 w(A6)=-0.2369 w(A7)=-0.4919 w(A8)=-0.1100 w(A9)=0.1208 w(A10)=-0.0121 w(A11)=0.4228 w(A12)=-0.6057 w(A13)=-0.5131 output=0.1926
After Iteration 197: w(A1)=0.1156 w(A2)=0.1530 w(A3)=0.1288 w(A4)=0.0548 w(A5)=-0.1140 w(A6)=-0.1945 w(A7)=-0.4919 w(A8)=-0.0676 w(A9)=0.1208 w(A10)=0.0303 w(A11)=0.4652 w(A12)=-0.6057 w(A13)=-0.4707 output=0.5252
After Iteration 198: w(A1)=0.0877 w(A2)=0.1251 w(A3)=0.1009 w(A4)=0.0548 w(A5)=-0.1140 w(A6)=-0.1945 w(A7)=-0.5198 w(A8)=-0.0676 w(A9)=0.0929 w(A10)=0.0303 w(A11)=0.4652 w(A12)=-0.6057 w(A13)=-0.4986 output=0.3516
After Iteration 199: w(A1)=0.0877 w(A2)=0.1251 w(A3)=0.1009 w(A4)=0.0977 w(A5)=-0.1140 w(A6)=-0.1945 w(A7)=-0.5198 w(A8)=-0.0676 w(A9)=0.0929 w(A10)=0.0733 w(A11)=0.4652 w(A12)=-0.5628 w(A13)=-0.4556 output=0.3000
After Iteration 200: w(A1)=0.1221 w(A2)=0.1595 w(A3)=0.1353 w(A4)=0.0977 w(A5)=-0.1140 w(A6)=-0.1601 w(A7)=-0.5198 w(A8)=-0.0332 w(A9)=0.1273 w(A10)=0.0733 w(A11)=0.4996 w(A12)=-0.5628 w(A13)=-0.4212 output=0.6057
After Iteration 201: w(A1)=0.0955 w(A2)=0.1329 w(A3)=0.1087 w(A4)=0.0711 w(A5)=-0.1407 w(A6)=-0.1867 w(A7)=-0.5464 w(A8)=-0.0332 w(A9)=0.1007 w(A10)=0.0467 w(A11)=0.4996 w(A12)=-0.5628 w(A13)=-0.4478 output=0.3173
After Iteration 202: w(A1)=0.0808 w(A2)=0.1329 w(A3)=0.1087 w(A4)=0.0564 w(A5)=-0.1407 w(A6)=-0.2014 w(A7)=-0.5611 w(A8)=-0.0479 w(A9)=0.1007 w(A10)=0.0320 w(A11)=0.4849 w(A12)=-0.5774 w(A13)=-0.4625 output=0.2322
After Iteration 203: w(A1)=0.0643 w(A2)=0.1329 w(A3)=0.0922 w(A4)=0.0399 w(A5)=-0.1572 w(A6)=-0.2014 w(A7)=-0.5776 w(A8)=-0.0644 w(A9)=0.1007 w(A10)=0.0320 w(A11)=0.4849 w(A12)=-0.5774 w(A13)=-0.4790 output=0.2532
After Iteration 204: w(A1)=0.0500 w(A2)=0.1186 w(A3)=0.0922 w(A4)=0.0399 w(A5)=-0.1715 w(A6)=-0.2157 w(A7)=-0.5919 w(A8)=-0.0644 w(A9)=0.0864 w(A10)=0.0177 w(A11)=0.4849 w(A12)=-0.5774 w(A13)=-0.4933 output=0.2315
After Iteration 205: w(A1)=0.0500 w(A2)=0.0922 w(A3)=0.0922 w(A4)=0.0136 w(A5)=-0.1715 w(A6)=-0.2420 w(A7)=-0.5919 w(A8)=-0.0907 w(A9)=0.0600 w(A10)=-0.0087 w(A11)=0.4849 w(A12)=-0.5774 w(A13)=-0.5197 output=0.3328
After Iteration 206: w(A1)=0.0840 w(A2)=0.0922 w(A3)=0.1262 w(A4)=0.0476 w(A5)=-0.1715 w(A6)=-0.2420 w(A7)=-0.5919 w(A8)=-0.0907 w(A9)=0.0940 w(A10)=0.0253 w(A11)=0.5190 w(A12)=-0.5774 w(A13)=-0.4857 output=0.6012
After Iteration 207: w(A1)=0.0619 w(A2)=0.0701 w(A3)=0.1041 w(A4)=0.0255 w(A5)=-0.1936 w(A6)=-0.2642 w(A7)=-0.5919 w(A8)=-0.1128 w(A9)=0.0940 w(A10)=0.0253 w(A11)=0.4969 w(A12)=-0.5995 w(A13)=-0.5078 output=0.2851
After Iteration 208: w(A1)=0.0619 w(A2)=0.1145 w(A3)=0.1041 w(A4)=0.0255 w(A5)=-0.1492 w(A6)=-0.2642 w(A7)=-0.5475 w(A8)=-0.0684 w(A9)=0.1384 w(A10)=0.0253 w(A11)=0.5413 w(A12)=-0.5995 w(A13)=-0.4634 output=0.3931
After Iteration 209: w(A1)=0.0619 w(A2)=0.1145 w(A3)=0.1041 w(A4)=0.0003 w(A5)=-0.1492 w(A6)=-0.2893 w(A7)=-0.5475 w(A8)=-0.0684 w(A9)=0.1133 w(A10)=0.0253 w(A11)=0.5413 w(A12)=-0.5995 w(A13)=-0.4885 output=0.3398
After Iteration 210: w(A1)=0.0619 w(A2)=0.1559 w(A3)=0.1041 w(A4)=0.0003 w(A5)=-0.1077 w(A6)=-0.2478 w(A7)=-0.5475 w(A8)=-0.0684 w(A9)=0.1133 w(A10)=0.0668 w(A11)=0.5827 w(A12)=-0.5995 w(A13)=-0.4471 output=0.5007
After Iteration 211: w(A1)=0.0619 w(A2)=0.1368 w(A3)=0.1041 w(A4)=0.0003 w(A5)=-0.1269 w(A6)=-0.2478 w(A7)=-0.5666 w(A8)=-0.0876 w(A9)=0.0941 w(A10)=0.0476 w(A11)=0.5827 w(A12)=-0.5995 w(A13)=-0.4662 output=0.2751
After Iteration 212: w(A1)=0.0619 w(A2)=0.1192 w(A3)=0.1041 w(A4)=0.0003 w(A5)=-0.1444 w(A6)=-0.2478 w(A7)=-0.5666 w(A8)=-0.0876 w(A9)=0.0766 w(A10)=0.0301 w(A11)=0.5827 w(A12)=-0.6171 w(A13)=-0.4838 output=0.2652
After Iteration 213: w(A1)=0.0619 w(A2)=0.1192 w(A3)=0.1001 w(A4)=-0.0037 w(A5)=-0.1484 w(A6)=-0.2519 w(A7)=-0.5707 w(A8)=-0.0876 w(A9)=0.0766 w(A10)=0.0301 w(A11)=0.5827 w(A12)=-0.6211 w(A13)=-0.4878 output=0.1209
After Iteration 214: w(A1)=0.0619 w(A2)=0.1017 w(A3)=0.1001 w(A4)=-0.0213 w(A5)=-0.1484 w(A6)=-0.2519 w(A7)=-0.5882 w(A8)=-0.0876 w(A9)=0.0766 w(A10)=0.0125 w(A11)=0.5827 w(A12)=-0.6211 w(A13)=-0.5054 output=0.2688
After Iteration 215: w(A1)=0.0619 w(A2)=0.0888 w(A3)=0.0872 w(A4)=-0.0213 w(A5)=-0.1484 w(A6)=-0.2647 w(A7)=-0.6011 w(A8)=-0.0876 w(A9)=0.0766 w(A10)=-0.0003 w(A11)=0.5699 w(A12)=-0.6340 w(A13)=-0.5182 output=0.2188
After Iteration 216: w(A1)=0.0619 w(A2)=0.0739 w(A3)=0.0872 w(A4)=-0.0362 w(A5)=-0.1484 w(A6)=-0.2647 w(A7)=-0.6160 w(A8)=-0.0876 w(A9)=0.0766 w(A10)=-0.0003 w(A11)=0.5699 w(A12)=-0.6340 w(A13)=-0.5331 output=0.2476
After Iteration 217: w(A1)=0.0619 w(A2)=0.0403 w(A3)=0.0872 w(A4)=-0.0698 w(A5)=-0.1484 w(A6)=-0.2984 w(A7)=-0.6160 w(A8)=-0.0876 w(A9)=0.0766 w(A10)=-0.0003 w(A11)=0.5362 w(A12)=-0.6340 w(A13)=-0.5668 output=0.4113
After Iteration 218: w(A1)=0.1029 w(A2)=0.0813 w(A3)=0.1282 w(A4)=-0.0698 w(A5)=-0.1075 w(A6)=-0.2574 w(A7)=-0.6160 w(A8)=-0.0876 w(A9)=0.1176 w(A10)=-0.0003 w(A11)=0.5772 w(A12)=-0.6340 w(A13)=-0.5258 output=0.5291
After Iteration 219: w(A1)=0.1029 w(A2)=0.0813 w(A3)=0.1713 w(A4)=-0.0698 w(A5)=-0.1075 w(A6)=-0.2574 w(A7)=-0.6160 w(A8)=-0.0445 w(A9)=0.1607 w(A10)=0.0428 w(A11)=0.5772 w(A12)=-0.5909 w(A13)=-0.4827 output=0.3223
After Iteration 220: w(A1)=0.1029 w(A2)=0.0666 w(A3)=0.1566 w(A4)=-0.0698 w(A5)=-0.1221 w(A6)=-0.2721 w(A7)=-0.6307 w(A8)=-0.0445 w(A9)=0.1460 w(A10)=0.0428 w(A11)=0.5625 w(A12)=-0.6056 w(A13)=-0.4973 output=0.2322
After Iteration 221: w(A1)=0.1411 w(A2)=0.1048 w(A3)=0.1566 w(A4)=-0.0698 w(A5)=-0.1221 w(A6)=-0.2339 w(A7)=-0.6307 w(A8)=-0.0063 w(A9)=0.1460 w(A10)=0.0810 w(A11)=0.6008 w(A12)=-0.6056 w(A13)=-0.4591 output=0.5569
After Iteration 222: w(A1)=0.1013 w(A2)=0.0650 w(A3)=0.1168 w(A4)=-0.0698 w(A5)=-0.1221 w(A6)=-0.2339 w(A7)=-0.6705 w(A8)=-0.0461 w(A9)=0.1062 w(A10)=0.0412 w(A11)=0.5609 w(A12)=-0.6056 w(A13)=-0.4990 output=0.4442
After Iteration 223: w(A1)=0.1013 w(A2)=0.0969 w(A3)=0.1487 w(A4)=-0.0698 w(A5)=-0.0902 w(A6)=-0.2339 w(A7)=-0.6705 w(A8)=-0.0461 w(A9)=0.1381 w(A10)=0.0731 w(A11)=0.5928 w(A12)=-0.6056 w(A13)=-0.4671 output=0.6206
After Iteration 224: w(A1)=0.1013 w(A2)=0.0713 w(A3)=0.1230 w(A4)=-0.0955 w(A5)=-0.1159 w(A6)=-0.2595 w(A7)=-0.6705 w(A8)=-0.0461 w(A9)=0.1381 w(A10)=0.0474 w(A11)=0.5928 w(A12)=-0.6056 w(A13)=-0.4927 output=0.3270
After Iteration 225: w(A1)=0.0886 w(A2)=0.0713 w(A3)=0.1230 w(A4)=-0.0955 w(A5)=-0.1286 w(A6)=-0.2595 w(A7)=-0.6833 w(A8)=-0.0589 w(A9)=0.1381 w(A10)=0.0347 w(A11)=0.5928 w(A12)=-0.6056 w(A13)=-0.5054 output=0.2222
After Iteration 226: w(A1)=0.0886 w(A2)=0.0713 w(A3)=0.1136 w(A4)=-0.0955 w(A5)=-0.1380 w(A6)=-0.2689 w(A7)=-0.6833 w(A8)=-0.0683 w(A9)=0.1381 w(A10)=0.0253 w(A11)=0.5928 w(A12)=-0.6150 w(A13)=-0.5148 output=0.1875
After Iteration 227: w(A1)=0.0635 w(A2)=0.0713 w(A3)=0.0886 w(A4)=-0.1205 w(A5)=-0.1631 w(A6)=-0.2689 w(A7)=-0.6833 w(A8)=-0.0683 w(A9)=0.1381 w(A10)=0.0253 w(A11)=0.5678 w(A12)=-0.6400 w(A13)=-0.5399 output=0.3222
After Iteration 228: w(A1)=0.0635 w(A2)=0.0713 w(A3)=0.0886 w(A4)=-0.1205 w(A5)=-0.1196 w(A6)=-0.2254 w(A7)=-0.6397 w(A8)=-0.0683 w(A9)=0.1816 w(A10)=0.0253 w(A11)=0.6113 w(A12)=-0.6400 w(A13)=-0.4964 output=0.3344
After Iteration 229: w(A1)=0.0546 w(A2)=0.0624 w(A3)=0.0886 w(A4)=-0.1294 w(A5)=-0.1284 w(A6)=-0.2343 w(A7)=-0.6486 w(A8)=-0.0683 w(A9)=0.1816 w(A10)=0.0164 w(A11)=0.6113 w(A12)=-0.6400 w(A13)=-0.5053 output=0.1806
After Iteration 230: w(A1)=0.0546 w(A2)=0.0624 w(A3)=0.0886 w(A4)=-0.1294 w(A5)=-0.1508 w(A6)=-0.2566 w(A7)=-0.6486 w(A8)=-0.0683 w(A9)=0.1592 w(A10)=0.0164 w(A11)=0.6113 w(A12)=-0.6400 w(A13)=-0.5276 output=0.3152
After Iteration 231: w(A1)=0.0546 w(A2)=0.0624 w(A3)=0.0886 w(A4)=-0.0903 w(A5)=-0.1117 w(A6)=-0.2566 w(A7)=-0.6486 w(A8)=-0.0292 w(A9)=0.1983 w(A10)=0.0555 w(A11)=0.6113 w(A12)=-0.6009 w(A13)=-0.4885 output=0.2560
After Iteration 232: w(A1)=0.0546 w(A2)=0.0624 w(A3)=0.1325 w(A4)=-0.0903 w(A5)=-0.0678 w(A6)=-0.2127 w(A7)=-0.6486 w(A8)=-0.0292 w(A9)=0.2422 w(A10)=0.0994 w(A11)=0.6552 w(A12)=-0.5570 w(A13)=-0.4446 output=0.4619
After Iteration 233: w(A1)=0.0546 w(A2)=0.0624 w(A3)=0.1692 w(A4)=-0.0536 w(A5)=-0.0311 w(A6)=-0.1761 w(A7)=-0.6486 w(A8)=0.0075 w(A9)=0.2422 w(A10)=0.1361 w(A11)=0.6919 w(A12)=-0.5570 w(A13)=-0.4079 output=0.5832
After Iteration 234: w(A1)=0.0546 w(A2)=0.0624 w(A3)=0.1692 w(A4)=-0.0691 w(A5)=-0.0311 w(A6)=-0.1761 w(A7)=-0.6486 w(A8)=0.0075 w(A9)=0.2422 w(A10)=0.1361 w(A11)=0.6919 w(A12)=-0.5725 w(A13)=-0.4235 output=0.2563
After Iteration 235: w(A1)=0.0546 w(A2)=0.0624 w(A3)=0.1527 w(A4)=-0.0856 w(A5)=-0.0476 w(A6)=-0.1925 w(A7)=-0.6486 w(A8)=0.0075 w(A9)=0.2422 w(A10)=0.1196 w(A11)=0.6919 w(A12)=-0.5890 w(A13)=-0.4400 output=0.2530
After Iteration 236: w(A1)=0.0546 w(A2)=0.0624 w(A3)=0.1527 w(A4)=-0.0912 w(A5)=-0.0532 w(A6)=-0.1981 w(A7)=-0.6542 w(A8)=0.0019 w(A9)=0.2366 w(A10)=0.1196 w(A11)=0.6919 w(A12)=-0.5946 w(A13)=-0.4455 output=0.1421
After Iteration 237: w(A1)=0.0313 w(A2)=0.0624 w(A3)=0.1527 w(A4)=-0.1145 w(A5)=-0.0532 w(A6)=-0.2215 w(A7)=-0.6775 w(A8)=0.0019 w(A9)=0.2366 w(A10)=0.1196 w(A11)=0.6685 w(A12)=-0.5946 w(A13)=-0.4689 output=0.3138
After Iteration 238: w(A1)=0.0212 w(A2)=0.0624 w(A3)=0.1426 w(A4)=-0.1246 w(A5)=-0.0633 w(A6)=-0.2315 w(A7)=-0.6876 w(A8)=0.0019 w(A9)=0.2366 w(A10)=0.1196 w(A11)=0.6685 w(A12)=-0.5946 w(A13)=-0.4790 output=0.1943
After Iteration 239: w(A1)=0.0468 w(A2)=0.0880 w(A3)=0.1683 w(A4)=-0.1246 w(A5)=-0.0633 w(A6)=-0.2059 w(A7)=-0.6876 w(A8)=0.0276 w(A9)=0.2623 w(A10)=0.1452 w(A11)=0.6942 w(A12)=-0.5946 w(A13)=-0.4533 output=0.6842
After Iteration 240: w(A1)=0.0859 w(A2)=0.1271 w(A3)=0.2073 w(A4)=-0.1246 w(A5)=-0.0633 w(A6)=-0.1668 w(A7)=-0.6486 w(A8)=0.0276 w(A9)=0.3013 w(A10)=0.1452 w(A11)=0.7332 w(A12)=-0.5946 w(A13)=-0.4143 output=0.5561
After Iteration 241: w(A1)=0.0859 w(A2)=0.0879 w(A3)=0.1682 w(A4)=-0.1246 w(A5)=-0.0633 w(A6)=-0.1668 w(A7)=-0.6486 w(A8)=-0.0116 w(A9)=0.3013 w(A10)=0.1061 w(A11)=0.7332 w(A12)=-0.5946 w(A13)=-0.4534 output=0.4743
After Iteration 242: w(A1)=0.0699 w(A2)=0.0719 w(A3)=0.1682 w(A4)=-0.1246 w(A5)=-0.0793 w(A6)=-0.1668 w(A7)=-0.6646 w(A8)=-0.0116 w(A9)=0.3013 w(A10)=0.1061 w(A11)=0.7332 w(A12)=-0.5946 w(A13)=-0.4694 output=0.2551
After Iteration 243: w(A1)=0.0699 w(A2)=0.0719 w(A3)=0.1408 w(A4)=-0.1246 w(A5)=-0.0793 w(A6)=-0.1942 w(A7)=-0.6646 w(A8)=-0.0116 w(A9)=0.3013 w(A10)=0.1061 w(A11)=0.7332 w(A12)=-0.5946 w(A13)=-0.4968 output=0.3658
After Iteration 244: w(A1)=0.0699 w(A2)=0.0335 w(A3)=0.1024 w(A4)=-0.1630 w(A5)=-0.1177 w(A6)=-0.2326 w(A7)=-0.6646 w(A8)=-0.0116 w(A9)=0.3013 w(A10)=0.1061 w(A11)=0.6948 w(A12)=-0.5946 w(A13)=-0.5352 output=0.4457
After Iteration 245: w(A1)=0.1137 w(A2)=0.0773 w(A3)=0.1024 w(A4)=-0.1192 w(A5)=-0.1177 w(A6)=-0.2326 w(A7)=-0.6646 w(A8)=-0.0116 w(A9)=0.3013 w(A10)=0.1499 w(A11)=0.6948 w(A12)=-0.5946 w(A13)=-0.4914 output=0.4330
After Iteration 246: w(A1)=0.1080 w(A2)=0.0773 w(A3)=0.1024 w(A4)=-0.1250 w(A5)=-0.1234 w(A6)=-0.2326 w(A7)=-0.6703 w(A8)=-0.0173 w(A9)=0.3013 w(A10)=0.1442 w(A11)=0.6948 w(A12)=-0.6003 w(A13)=-0.4971 output=0.1441
After Iteration 247: w(A1)=0.1080 w(A2)=0.0378 w(A3)=0.0629 w(A4)=-0.1644 w(A5)=-0.1629 w(A6)=-0.2326 w(A7)=-0.6703 w(A8)=-0.0568 w(A9)=0.3013 w(A10)=0.1442 w(A11)=0.6553 w(A12)=-0.6003 w(A13)=-0.5366 output=0.4589
After Iteration 248: w(A1)=0.0890 w(A2)=0.0378 w(A3)=0.0629 w(A4)=-0.1834 w(A5)=-0.1819 w(A6)=-0.2516 w(A7)=-0.6703 w(A8)=-0.0568 w(A9)=0.3013 w(A10)=0.1252 w(A11)=0.6553 w(A12)=-0.6003 w(A13)=-0.5556 output=0.2772
After Iteration 249: w(A1)=0.0890 w(A2)=0.0326 w(A3)=0.0629 w(A4)=-0.1834 w(A5)=-0.1819 w(A6)=-0.2568 w(A7)=-0.6755 w(A8)=-0.0620 w(A9)=0.2961 w(A10)=0.1252 w(A11)=0.6553 w(A12)=-0.6055 w(A13)=-0.5608 output=0.1380
After Iteration 250: w(A1)=0.0890 w(A2)=0.0667 w(A3)=0.0970 w(A4)=-0.1834 w(A5)=-0.1819 w(A6)=-0.2227 w(A7)=-0.6755 w(A8)=-0.0279 w(A9)=0.3303 w(A10)=0.1252 w(A11)=0.6895 w(A12)=-0.6055 w(A13)=-0.5267 output=0.6002
After Iteration 251: w(A1)=0.0890 w(A2)=0.0481 w(A3)=0.0784 w(A4)=-0.1834 w(A5)=-0.1819 w(A6)=-0.2413 w(A7)=-0.6755 w(A8)=-0.0279 w(A9)=0.3116 w(A10)=0.1252 w(A11)=0.6895 w(A12)=-0.6242 w(A13)=-0.5453 output=0.2744
After Iteration 252: w(A1)=0.0890 w(A2)=0.0368 w(A3)=0.0672 w(A4)=-0.1834 w(A5)=-0.1819 w(A6)=-0.2526 w(A7)=-0.6868 w(A8)=-0.0279 w(A9)=0.3116 w(A10)=0.1252 w(A11)=0.6782 w(A12)=-0.6354 w(A13)=-0.5565 output=0.2060
After Iteration 253: w(A1)=0.0590 w(A2)=0.0368 w(A3)=0.0672 w(A4)=-0.1834 w(A5)=-0.1819 w(A6)=-0.2526 w(A7)=-0.7168 w(A8)=-0.0279 w(A9)=0.3116 w(A10)=0.0952 w(A11)=0.6482 w(A12)=-0.6354 w(A13)=-0.5866 output=0.3773
After Iteration 254: w(A1)=0.1027 w(A2)=0.0368 w(A3)=0.1109 w(A4)=-0.1396 w(A5)=-0.1819 w(A6)=-0.2088 w(A7)=-0.7168 w(A8)=0.0159 w(A9)=0.3116 w(A10)=0.0952 w(A11)=0.6919 w(A12)=-0.5917 w(A13)=-0.5428 output=0.3632
After Iteration 255: w(A1)=0.1027 w(A2)=0.0052 w(A3)=0.0792 w(A4)=-0.1396 w(A5)=-0.1819 w(A6)=-0.2088 w(A7)=-0.7168 w(A8)=-0.0158 w(A9)=0.3116 w(A10)=0.0952 w(A11)=0.6602 w(A12)=-0.6233 w(A13)=-0.5745 output=0.3849
After Iteration 256: w(A1)=0.0922 w(A2)=-0.0054 w(A3)=0.0687 w(A4)=-0.1396 w(A5)=-0.1819 w(A6)=-0.2088 w(A7)=-0.7274 w(A8)=-0.0158 w(A9)=0.3011 w(A10)=0.0847 w(A11)=0.6602 w(A12)=-0.6338 w(A13)=-0.5850 output=0.1970
After Iteration 257: w(A1)=0.0922 w(A2)=-0.0054 w(A3)=0.0687 w(A4)=-0.1544 w(A5)=-0.1819 w(A6)=-0.2088 w(A7)=-0.7274 w(A8)=-0.0158 w(A9)=0.2863 w(A10)=0.0847 w(A11)=0.6602 w(A12)=-0.6486 w(A13)=-0.5998 output=0.2466
After Iteration 258: w(A1)=0.1366 w(A2)=-0.0054 w(A3)=0.0687 w(A4)=-0.1544 w(A5)=-0.1374 w(A6)=-0.1644 w(A7)=-0.6829 w(A8)=-0.0158 w(A9)=0.3308 w(A10)=0.0847 w(A11)=0.7047 w(A12)=-0.6486 w(A13)=-0.5554 output=0.4090
After Iteration 259: w(A1)=0.1366 w(A2)=-0.0266 w(A3)=0.0687 w(A4)=-0.1756 w(A5)=-0.1374 w(A6)=-0.1856 w(A7)=-0.6829 w(A8)=-0.0158 w(A9)=0.3308 w(A10)=0.0634 w(A11)=0.6835 w(A12)=-0.6699 w(A13)=-0.5766 output=0.2917
After Iteration 260: w(A1)=0.1366 w(A2)=-0.0433 w(A3)=0.0687 w(A4)=-0.1756 w(A5)=-0.1374 w(A6)=-0.1856 w(A7)=-0.6996 w(A8)=-0.0158 w(A9)=0.3140 w(A10)=0.0634 w(A11)=0.6835 w(A12)=-0.6699 w(A13)=-0.5933 output=0.2646
After Iteration 261: w(A1)=0.1045 w(A2)=-0.0755 w(A3)=0.0365 w(A4)=-0.1756 w(A5)=-0.1696 w(A6)=-0.1856 w(A7)=-0.6996 w(A8)=-0.0480 w(A9)=0.2819 w(A10)=0.0634 w(A11)=0.6513 w(A12)=-0.7020 w(A13)=-0.6255 output=0.3667
After Iteration 262: w(A1)=0.1045 w(A2)=-0.0897 w(A3)=0.0365 w(A4)=-0.1756 w(A5)=-0.1838 w(A6)=-0.1998 w(A7)=-0.7139 w(A8)=-0.0622 w(A9)=0.2819 w(A10)=0.0492 w(A11)=0.6371 w(A12)=-0.7020 w(A13)=-0.6397 output=0.2310
After Iteration 263: w(A1)=0.0939 w(A2)=-0.1002 w(A3)=0.0365 w(A4)=-0.1756 w(A5)=-0.1944 w(A6)=-0.1998 w(A7)=-0.7244 w(A8)=-0.0727 w(A9)=0.2713 w(A10)=0.0387 w(A11)=0.6265 w(A12)=-0.7126 w(A13)=-0.6503 output=0.1940
After Iteration 264: w(A1)=0.0911 w(A2)=-0.1030 w(A3)=0.0365 w(A4)=-0.1756 w(A5)=-0.1972 w(A6)=-0.2026 w(A7)=-0.7272 w(A8)=-0.0727 w(A9)=0.2685 w(A10)=0.0359 w(A11)=0.6265 w(A12)=-0.7154 w(A13)=-0.6530 output=0.0995
After Iteration 265: w(A1)=0.0911 w(A2)=-0.1030 w(A3)=0.0157 w(A4)=-0.1965 w(A5)=-0.1972 w(A6)=-0.2026 w(A7)=-0.7272 w(A8)=-0.0727 w(A9)=0.2685 w(A10)=0.0150 w(A11)=0.6265 w(A12)=-0.7154 w(A13)=-0.6739 output=0.3016
After Iteration 266: w(A1)=0.1354 w(A2)=-0.1030 w(A3)=0.0600 w(A4)=-0.1522 w(A5)=-0.1972 w(A6)=-0.2026 w(A7)=-0.6829 w(A8)=-0.0727 w(A9)=0.3128 w(A10)=0.0150 w(A11)=0.6708 w(A12)=-0.7154 w(A13)=-0.6296 output=0.4291
After Iteration 267: w(A1)=0.1354 w(A2)=-0.1030 w(A3)=0.0600 w(A4)=-0.1202 w(A5)=-0.1652 w(A6)=-0.2026 w(A7)=-0.6509 w(A8)=-0.0408 w(A9)=0.3128 w(A10)=0.0470 w(A11)=0.7028 w(A12)=-0.6834 w(A13)=-0.5976 output=0.1812
After Iteration 268: w(A1)=0.1765 w(A2)=-0.1030 w(A3)=0.1010 w(A4)=-0.0792 w(A5)=-0.1652 w(A6)=-0.2026 w(A7)=-0.6509 w(A8)=0.0003 w(A9)=0.3128 w(A10)=0.0880 w(A11)=0.7028 w(A12)=-0.6424 w(A13)=-0.5566 output=0.2865
After Iteration 269: w(A1)=0.1765 w(A2)=-0.0591 w(A3)=0.1450 w(A4)=-0.0792 w(A5)=-0.1652 w(A6)=-0.2026 w(A7)=-0.6070 w(A8)=0.0003 w(A9)=0.3128 w(A10)=0.0880 w(A11)=0.7467 w(A12)=-0.6424 w(A13)=-0.5127 output=0.4287
After Iteration 270: w(A1)=0.1585 w(A2)=-0.0591 w(A3)=0.1450 w(A4)=-0.0792 w(A5)=-0.1831 w(A6)=-0.2205 w(A7)=-0.6249 w(A8)=-0.0177 w(A9)=0.2949 w(A10)=0.0880 w(A11)=0.7288 w(A12)=-0.6603 w(A13)=-0.5306 output=0.2583
After Iteration 271: w(A1)=0.1303 w(A2)=-0.0873 w(A3)=0.1450 w(A4)=-0.0792 w(A5)=-0.1831 w(A6)=-0.2205 w(A7)=-0.6249 w(A8)=-0.0177 w(A9)=0.2949 w(A10)=0.0880 w(A11)=0.7288 w(A12)=-0.6603 w(A13)=-0.5588 output=0.3738
After Iteration 272: w(A1)=0.1303 w(A2)=-0.0469 w(A3)=0.1854 w(A4)=-0.0387 w(A5)=-0.1427 w(A6)=-0.1801 w(A7)=-0.5845 w(A8)=0.0228 w(A9)=0.3353 w(A10)=0.1285 w(A11)=0.7288 w(A12)=-0.6603 w(A13)=-0.5184 output=0.3017
After Iteration 273: w(A1)=0.1303 w(A2)=-0.0536 w(A3)=0.1854 w(A4)=-0.0454 w(A5)=-0.1494 w(A6)=-0.1801 w(A7)=-0.5912 w(A8)=0.0161 w(A9)=0.3286 w(A10)=0.1285 w(A11)=0.7288 w(A12)=-0.6670 w(A13)=-0.5251 output=0.1562
After Iteration 274: w(A1)=0.0922 w(A2)=-0.0536 w(A3)=0.1854 w(A4)=-0.0835 w(A5)=-0.1494 w(A6)=-0.1801 w(A7)=-0.5912 w(A8)=-0.0220 w(A9)=0.2905 w(A10)=0.0904 w(A11)=0.7288 w(A12)=-0.6670 w(A13)=-0.5632 output=0.4512
After Iteration 275: w(A1)=0.0922 w(A2)=-0.0611 w(A3)=0.1854 w(A4)=-0.0911 w(A5)=-0.1569 w(A6)=-0.1877 w(A7)=-0.5987 w(A8)=-0.0296 w(A9)=0.2905 w(A10)=0.0828 w(A11)=0.7288 w(A12)=-0.6670 w(A13)=-0.5707 output=0.1662
After Iteration 276: w(A1)=0.0922 w(A2)=-0.0611 w(A3)=0.2184 w(A4)=-0.0911 w(A5)=-0.1239 w(A6)=-0.1546 w(A7)=-0.5657 w(A8)=-0.0296 w(A9)=0.3236 w(A10)=0.0828 w(A11)=0.7288 w(A12)=-0.6340 w(A13)=-0.5377 output=0.1864
After Iteration 277: w(A1)=0.0692 w(A2)=-0.0841 w(A3)=0.2184 w(A4)=-0.0911 w(A5)=-0.1469 w(A6)=-0.1546 w(A7)=-0.5657 w(A8)=-0.0526 w(A9)=0.3236 w(A10)=0.0828 w(A11)=0.7288 w(A12)=-0.6340 w(A13)=-0.5606 output=0.3154
After Iteration 278: w(A1)=0.1112 w(A2)=-0.0841 w(A3)=0.2184 w(A4)=-0.0491 w(A5)=-0.1469 w(A6)=-0.1546 w(A7)=-0.5237 w(A8)=-0.0106 w(A9)=0.3236 w(A10)=0.1248 w(A11)=0.7288 w(A12)=-0.6340 w(A13)=-0.5187 output=0.2961
After Iteration 279: w(A1)=0.1112 w(A2)=-0.0841 w(A3)=0.2184 w(A4)=-0.0611 w(A5)=-0.1588 w(A6)=-0.1546 w(A7)=-0.5237 w(A8)=-0.0106 w(A9)=0.3236 w(A10)=0.1128 w(A11)=0.7288 w(A12)=-0.6460 w(A13)=-0.5306 output=0.2169
After Iteration 280: w(A1)=0.1421 w(A2)=-0.0841 w(A3)=0.2493 w(A4)=-0.0611 w(A5)=-0.1280 w(A6)=-0.1238 w(A7)=-0.5237 w(A8)=0.0203 w(A9)=0.3236 w(A10)=0.1437 w(A11)=0.7596 w(A12)=-0.6460 w(A13)=-0.4998 output=0.6372
After Iteration 281: w(A1)=0.1421 w(A2)=-0.1070 w(A3)=0.2264 w(A4)=-0.0840 w(A5)=-0.1280 w(A6)=-0.1238 w(A7)=-0.5466 w(A8)=0.0203 w(A9)=0.3236 w(A10)=0.1208 w(A11)=0.7367 w(A12)=-0.6689 w(A13)=-0.5227 output=0.3004
After Iteration 282: w(A1)=0.1421 w(A2)=-0.1416 w(A3)=0.2264 w(A4)=-0.0840 w(A5)=-0.1626 w(A6)=-0.1584 w(A7)=-0.5466 w(A8)=0.0203 w(A9)=0.3236 w(A10)=0.1208 w(A11)=0.7021 w(A12)=-0.6689 w(A13)=-0.5573 output=0.4212
After Iteration 283: w(A1)=0.1154 w(A2)=-0.1416 w(A3)=0.2264 w(A4)=-0.0840 w(A5)=-0.1626 w(A6)=-0.1584 w(A7)=-0.5733 w(A8)=-0.0064 w(A9)=0.2969 w(A10)=0.0941 w(A11)=0.7021 w(A12)=-0.6689 w(A13)=-0.5840 output=0.3413
After Iteration 284: w(A1)=0.1544 w(A2)=-0.1026 w(A3)=0.2654 w(A4)=-0.0450 w(A5)=-0.1626 w(A6)=-0.1584 w(A7)=-0.5733 w(A8)=0.0326 w(A9)=0.3359 w(A10)=0.1331 w(A11)=0.7021 w(A12)=-0.6689 w(A13)=-0.5450 output=0.5569
After Iteration 285: w(A1)=0.1544 w(A2)=-0.1390 w(A3)=0.2290 w(A4)=-0.0814 w(A5)=-0.1626 w(A6)=-0.1584 w(A7)=-0.5733 w(A8)=-0.0038 w(A9)=0.2995 w(A10)=0.1331 w(A11)=0.7021 w(A12)=-0.6689 w(A13)=-0.5814 output=0.4312
After Iteration 286: w(A1)=0.1544 w(A2)=-0.1390 w(A3)=0.1925 w(A4)=-0.0814 w(A5)=-0.1991 w(A6)=-0.1584 w(A7)=-0.5733 w(A8)=-0.0403 w(A9)=0.2630 w(A10)=0.0966 w(A11)=0.6656 w(A12)=-0.7053 w(A13)=-0.6179 output=0.4146
After Iteration 287: w(A1)=0.1544 w(A2)=-0.1060 w(A3)=0.2255 w(A4)=-0.0484 w(A5)=-0.1991 w(A6)=-0.1254 w(A7)=-0.5733 w(A8)=-0.0403 w(A9)=0.2960 w(A10)=0.1296 w(A11)=0.6986 w(A12)=-0.7053 w(A13)=-0.5849 output=0.6189
After Iteration 288: w(A1)=0.1544 w(A2)=-0.1060 w(A3)=0.2032 w(A4)=-0.0706 w(A5)=-0.1991 w(A6)=-0.1254 w(A7)=-0.5956 w(A8)=-0.0403 w(A9)=0.2737 w(A10)=0.1296 w(A11)=0.6763 w(A12)=-0.7276 w(A13)=-0.6071 output=0.2999
After Iteration 289: w(A1)=0.1544 w(A2)=-0.1060 w(A3)=0.1624 w(A4)=-0.1115 w(A5)=-0.1991 w(A6)=-0.1254 w(A7)=-0.5956 w(A8)=-0.0403 w(A9)=0.2737 w(A10)=0.1296 w(A11)=0.6355 w(A12)=-0.7276 w(A13)=-0.6480 output=0.5096
After Iteration 290: w(A1)=0.1544 w(A2)=-0.0712 w(A3)=0.1972 w(A4)=-0.0767 w(A5)=-0.1643 w(A6)=-0.1254 w(A7)=-0.5956 w(A8)=-0.0403 w(A9)=0.3085 w(A10)=0.1643 w(A11)=0.6702 w(A12)=-0.7276 w(A13)=-0.6132 output=0.6022
After Iteration 291: w(A1)=0.1544 w(A2)=-0.0712 w(A3)=0.1869 w(A4)=-0.0767 w(A5)=-0.1745 w(A6)=-0.1356 w(A7)=-0.6058 w(A8)=-0.0505 w(A9)=0.3085 w(A10)=0.1643 w(A11)=0.6702 w(A12)=-0.7276 w(A13)=-0.6234 output=0.1974
After Iteration 292: w(A1)=0.1544 w(A2)=-0.0712 w(A3)=0.1502 w(A4)=-0.1134 w(A5)=-0.1745 w(A6)=-0.1356 w(A7)=-0.6058 w(A8)=-0.0505 w(A9)=0.2718 w(A10)=0.1276 w(A11)=0.6702 w(A12)=-0.7276 w(A13)=-0.6602 output=0.4442
After Iteration 293: w(A1)=0.1544 w(A2)=-0.0712 w(A3)=0.1285 w(A4)=-0.1134 w(A5)=-0.1745 w(A6)=-0.1356 w(A7)=-0.6275 w(A8)=-0.0505 w(A9)=0.2501 w(A10)=0.1059 w(A11)=0.6702 w(A12)=-0.7276 w(A13)=-0.6819 output=0.3047
After Iteration 294: w(A1)=0.1415 w(A2)=-0.0841 w(A3)=0.1156 w(A4)=-0.1134 w(A5)=-0.1874 w(A6)=-0.1356 w(A7)=-0.6404 w(A8)=-0.0505 w(A9)=0.2501 w(A10)=0.0930 w(A11)=0.6702 w(A12)=-0.7276 w(A13)=-0.6948 output=0.2215
After Iteration 295: w(A1)=0.1373 w(A2)=-0.0883 w(A3)=0.1156 w(A4)=-0.1134 w(A5)=-0.1916 w(A6)=-0.1356 w(A7)=-0.6445 w(A8)=-0.0505 w(A9)=0.2460 w(A10)=0.0930 w(A11)=0.6702 w(A12)=-0.7317 w(A13)=-0.6989 output=0.1222
After Iteration 296: w(A1)=0.1373 w(A2)=-0.1081 w(A3)=0.0958 w(A4)=-0.1134 w(A5)=-0.2114 w(A6)=-0.1555 w(A7)=-0.6445 w(A8)=-0.0703 w(A9)=0.2261 w(A10)=0.0930 w(A11)=0.6702 w(A12)=-0.7317 w(A13)=-0.7187 output=0.2805
After Iteration 297: w(A1)=0.1373 w(A2)=-0.1143 w(A3)=0.0896 w(A4)=-0.1197 w(A5)=-0.2114 w(A6)=-0.1617 w(A7)=-0.6507 w(A8)=-0.0765 w(A9)=0.2261 w(A10)=0.0868 w(A11)=0.6640 w(A12)=-0.7379 w(A13)=-0.7249 output=0.1486
After Iteration 298: w(A1)=0.1134 w(A2)=-0.1143 w(A3)=0.0656 w(A4)=-0.1436 w(A5)=-0.2114 w(A6)=-0.1856 w(A7)=-0.6507 w(A8)=-0.1005 w(A9)=0.2022 w(A10)=0.0628 w(A11)=0.6401 w(A12)=-0.7619 w(A13)=-0.7489 output=0.2981
After Iteration 299: w(A1)=0.1577 w(A2)=-0.0700 w(A3)=0.1099 w(A4)=-0.1436 w(A5)=-0.1671 w(A6)=-0.1856 w(A7)=-0.6065 w(A8)=-0.0562 w(A9)=0.2465 w(A10)=0.0628 w(A11)=0.6844 w(A12)=-0.7619 w(A13)=-0.7046 output=0.3999
After Iteration 300: w(A1)=0.1464 w(A2)=-0.0700 w(A3)=0.0986 w(A4)=-0.1436 w(A5)=-0.1784 w(A6)=-0.1856 w(A7)=-0.6178 w(A8)=-0.0675 w(A9)=0.2465 w(A10)=0.0628 w(A11)=0.6844 w(A12)=-0.7619 w(A13)=-0.7159 output=0.2084
After Iteration 301: w(A1)=0.1464 w(A2)=-0.0898 w(A3)=0.0788 w(A4)=-0.1436 w(A5)=-0.1982 w(A6)=-0.2054 w(A7)=-0.6178 w(A8)=-0.0675 w(A9)=0.2267 w(A10)=0.0628 w(A11)=0.6844 w(A12)=-0.7619 w(A13)=-0.7357 output=0.2842
After Iteration 302: w(A1)=0.1464 w(A2)=-0.1037 w(A3)=0.0788 w(A4)=-0.1575 w(A5)=-0.1982 w(A6)=-0.2193 w(A7)=-0.6317 w(A8)=-0.0675 w(A9)=0.2267 w(A10)=0.0628 w(A11)=0.6705 w(A12)=-0.7619 w(A13)=-0.7496 output=0.2330
After Iteration 303: w(A1)=0.1879 w(A2)=-0.1037 w(A3)=0.1204 w(A4)=-0.1575 w(A5)=-0.1982 w(A6)=-0.1777 w(A7)=-0.5901 w(A8)=-0.0259 w(A9)=0.2683 w(A10)=0.1044 w(A11)=0.6705 w(A12)=-0.7619 w(A13)=-0.7080 output=0.3056
After Iteration 304: w(A1)=0.1879 w(A2)=-0.1088 w(A3)=0.1153 w(A4)=-0.1626 w(A5)=-0.2033 w(A6)=-0.1777 w(A7)=-0.5901 w(A8)=-0.0259 w(A9)=0.2683 w(A10)=0.1044 w(A11)=0.6705 w(A12)=-0.7670 w(A13)=-0.7131 output=0.1371
After Iteration 305: w(A1)=0.1879 w(A2)=-0.1088 w(A3)=0.0998 w(A4)=-0.1626 w(A5)=-0.2188 w(A6)=-0.1777 w(A7)=-0.6056 w(A8)=-0.0259 w(A9)=0.2527 w(A10)=0.0889 w(A11)=0.6705 w(A12)=-0.7670 w(A13)=-0.7286 output=0.2476
After Iteration 306: w(A1)=0.2275 w(A2)=-0.1088 w(A3)=0.1393 w(A4)=-0.1230 w(A5)=-0.2188 w(A6)=-0.1777 w(A7)=-0.6056 w(A8)=0.0136 w(A9)=0.2527 w(A10)=0.1285 w(A11)=0.6705 w(A12)=-0.7274 w(A13)=-0.6891 output=0.2630
After Iteration 307: w(A1)=0.2606 w(A2)=-0.1088 w(A3)=0.1393 w(A4)=-0.0899 w(A5)=-0.2188 w(A6)=-0.1446 w(A7)=-0.5725 w(A8)=0.0468 w(A9)=0.2859 w(A10)=0.1616 w(A11)=0.6705 w(A12)=-0.6943 w(A13)=-0.6560 output=0.1974
After Iteration 308: w(A1)=0.2422 w(A2)=-0.1272 w(A3)=0.1393 w(A4)=-0.0899 w(A5)=-0.2372 w(A6)=-0.1446 w(A7)=-0.5909 w(A8)=0.0468 w(A9)=0.2675 w(A10)=0.1432 w(A11)=0.6521 w(A12)=-0.7127 w(A13)=-0.6743 output=0.2617
After Iteration 309: w(A1)=0.2422 w(A2)=-0.1272 w(A3)=0.1260 w(A4)=-0.1033 w(A5)=-0.2506 w(A6)=-0.1446 w(A7)=-0.6042 w(A8)=0.0334 w(A9)=0.2541 w(A10)=0.1432 w(A11)=0.6521 w(A12)=-0.7127 w(A13)=-0.6877 output=0.2258
After Iteration 310: w(A1)=0.2253 w(A2)=-0.1272 w(A3)=0.1090 w(A4)=-0.1202 w(A5)=-0.2506 w(A6)=-0.1446 w(A7)=-0.6212 w(A8)=0.0334 w(A9)=0.2541 w(A10)=0.1263 w(A11)=0.6351 w(A12)=-0.7296 w(A13)=-0.7047 output=0.2535
After Iteration 311: w(A1)=0.2253 w(A2)=-0.1272 w(A3)=0.0987 w(A4)=-0.1305 w(A5)=-0.2506 w(A6)=-0.1446 w(A7)=-0.6315 w(A8)=0.0334 w(A9)=0.2541 w(A10)=0.1263 w(A11)=0.6351 w(A12)=-0.7296 w(A13)=-0.7149 output=0.2013
After Iteration 312: w(A1)=0.2068 w(A2)=-0.1457 w(A3)=0.0802 w(A4)=-0.1490 w(A5)=-0.2691 w(A6)=-0.1446 w(A7)=-0.6315 w(A8)=0.0149 w(A9)=0.2541 w(A10)=0.1263 w(A11)=0.6351 w(A12)=-0.7296 w(A13)=-0.7334 output=0.2698
After Iteration 313: w(A1)=0.2068 w(A2)=-0.1508 w(A3)=0.0752 w(A4)=-0.1490 w(A5)=-0.2742 w(A6)=-0.1496 w(A7)=-0.6315 w(A8)=0.0149 w(A9)=0.2541 w(A10)=0.1212 w(A11)=0.6351 w(A12)=-0.7347 w(A13)=-0.7385 output=0.1357
After Iteration 314: w(A1)=0.1873 w(A2)=-0.1703 w(A3)=0.0752 w(A4)=-0.1490 w(A5)=-0.2742 w(A6)=-0.1692 w(A7)=-0.6315 w(A8)=-0.0047 w(A9)=0.2541 w(A10)=0.1212 w(A11)=0.6351 w(A12)=-0.7347 w(A13)=-0.7580 output=0.2860
After Iteration 315: w(A1)=0.1873 w(A2)=-0.1703 w(A3)=0.0752 w(A4)=-0.1548 w(A5)=-0.2800 w(A6)=-0.1750 w(A7)=-0.6373 w(A8)=-0.0047 w(A9)=0.2483 w(A10)=0.1212 w(A11)=0.6351 w(A12)=-0.7347 w(A13)=-0.7638 output=0.1465
After Iteration 316: w(A1)=0.1873 w(A2)=-0.1703 w(A3)=0.0752 w(A4)=-0.1548 w(A5)=-0.2821 w(A6)=-0.1771 w(A7)=-0.6394 w(A8)=-0.0047 w(A9)=0.2462 w(A10)=0.1212 w(A11)=0.6351 w(A12)=-0.7368 w(A13)=-0.7659 output=0.0867
After Iteration 317: w(A1)=0.1873 w(A2)=-0.1970 w(A3)=0.0485 w(A4)=-0.1548 w(A5)=-0.2821 w(A6)=-0.1771 w(A7)=-0.6394 w(A8)=-0.0313 w(A9)=0.2195 w(A10)=0.0946 w(A11)=0.6351 w(A12)=-0.7368 w(A13)=-0.7926 output=0.3411
After Iteration 318: w(A1)=0.1805 w(A2)=-0.2037 w(A3)=0.0485 w(A4)=-0.1548 w(A5)=-0.2888 w(A6)=-0.1771 w(A7)=-0.6461 w(A8)=-0.0313 w(A9)=0.2195 w(A10)=0.0878 w(A11)=0.6351 w(A12)=-0.7368 w(A13)=-0.7993 output=0.1585
After Iteration 319: w(A1)=0.1714 w(A2)=-0.2037 w(A3)=0.0485 w(A4)=-0.1639 w(A5)=-0.2888 w(A6)=-0.1862 w(A7)=-0.6552 w(A8)=-0.0404 w(A9)=0.2104 w(A10)=0.0787 w(A11)=0.6260 w(A12)=-0.7459 w(A13)=-0.8085 output=0.1804
After Iteration 320: w(A1)=0.1581 w(A2)=-0.2037 w(A3)=0.0352 w(A4)=-0.1639 w(A5)=-0.2888 w(A6)=-0.1995 w(A7)=-0.6686 w(A8)=-0.0404 w(A9)=0.1971 w(A10)=0.0654 w(A11)=0.6260 w(A12)=-0.7459 w(A13)=-0.8218 output=0.2254
After Iteration 321: w(A1)=0.1581 w(A2)=-0.2037 w(A3)=0.0352 w(A4)=-0.1639 w(A5)=-0.2444 w(A6)=-0.1551 w(A7)=-0.6686 w(A8)=0.0040 w(A9)=0.1971 w(A10)=0.1098 w(A11)=0.6704 w(A12)=-0.7459 w(A13)=-0.7774 output=0.4031
After Iteration 322: w(A1)=0.1581 w(A2)=-0.2037 w(A3)=0.0168 w(A4)=-0.1639 w(A5)=-0.2628 w(A6)=-0.1551 w(A7)=-0.6870 w(A8)=-0.0144 w(A9)=0.1971 w(A10)=0.0914 w(A11)=0.6520 w(A12)=-0.7459 w(A13)=-0.7958 output=0.2690
After Iteration 323: w(A1)=0.1269 w(A2)=-0.2037 w(A3)=-0.0143 w(A4)=-0.1950 w(A5)=-0.2939 w(A6)=-0.1551 w(A7)=-0.6870 w(A8)=-0.0144 w(A9)=0.1971 w(A10)=0.0603 w(A11)=0.6209 w(A12)=-0.7459 w(A13)=-0.8269 output=0.3724
After Iteration 324: w(A1)=0.1269 w(A2)=-0.2239 w(A3)=-0.0345 w(A4)=-0.2152 w(A5)=-0.2939 w(A6)=-0.1752 w(A7)=-0.6870 w(A8)=-0.0346 w(A9)=0.1971 w(A10)=0.0603 w(A11)=0.6008 w(A12)=-0.7459 w(A13)=-0.8470 output=0.2830
After Iteration 325: w(A1)=0.1473 w(A2)=-0.2239 w(A3)=-0.0141 w(A4)=-0.1948 w(A5)=-0.2735 w(A6)=-0.1752 w(A7)=-0.6666 w(A8)=-0.0346 w(A9)=0.2175 w(A10)=0.0806 w(A11)=0.6008 w(A12)=-0.7255 w(A13)=-0.8267 output=0.0948
After Iteration 326: w(A1)=0.1427 w(A2)=-0.2285 w(A3)=-0.0187 w(A4)=-0.1994 w(A5)=-0.2735 w(A6)=-0.1752 w(A7)=-0.6666 w(A8)=-0.0392 w(A9)=0.2175 w(A10)=0.0806 w(A11)=0.6008 w(A12)=-0.7301 w(A13)=-0.8313 output=0.1296
After Iteration 327: w(A1)=0.1427 w(A2)=-0.2285 w(A3)=-0.0187 w(A4)=-0.1607 w(A5)=-0.2349 w(A6)=-0.1366 w(A7)=-0.6279 w(A8)=-0.0005 w(A9)=0.2561 w(A10)=0.0806 w(A11)=0.6395 w(A12)=-0.7301 w(A13)=-0.7926 output=0.2578
After Iteration 328: w(A1)=0.1232 w(A2)=-0.2285 w(A3)=-0.0383 w(A4)=-0.1803 w(A5)=-0.2349 w(A6)=-0.1366 w(A7)=-0.6474 w(A8)=-0.0005 w(A9)=0.2561 w(A10)=0.0806 w(A11)=0.6200 w(A12)=-0.7301 w(A13)=-0.8121 output=0.2819
After Iteration 329: w(A1)=0.1208 w(A2)=-0.2308 w(A3)=-0.0383 w(A4)=-0.1826 w(A5)=-0.2349 w(A6)=-0.1389 w(A7)=-0.6498 w(A8)=-0.0005 w(A9)=0.2538 w(A10)=0.0783 w(A11)=0.6200 w(A12)=-0.7325 w(A13)=-0.8145 output=0.0914
After Iteration 330: w(A1)=0.1132 w(A2)=-0.2308 w(A3)=-0.0459 w(A4)=-0.1903 w(A5)=-0.2425 w(A6)=-0.1389 w(A7)=-0.6574 w(A8)=-0.0081 w(A9)=0.2462 w(A10)=0.0783 w(A11)=0.6200 w(A12)=-0.7325 w(A13)=-0.8221 output=0.1670
After Iteration 331: w(A1)=0.1542 w(A2)=-0.1898 w(A3)=-0.0459 w(A4)=-0.1903 w(A5)=-0.2425 w(A6)=-0.0979 w(A7)=-0.6574 w(A8)=-0.0081 w(A9)=0.2872 w(A10)=0.0783 w(A11)=0.6610 w(A12)=-0.7325 w(A13)=-0.7811 output=0.5084
After Iteration 332: w(A1)=0.1298 w(A2)=-0.1898 w(A3)=-0.0702 w(A4)=-0.1903 w(A5)=-0.2425 w(A6)=-0.0979 w(A7)=-0.6818 w(A8)=-0.0325 w(A9)=0.2872 w(A10)=0.0539 w(A11)=0.6366 w(A12)=-0.7325 w(A13)=-0.8054 output=0.3166
After Iteration 333: w(A1)=0.1644 w(A2)=-0.1898 w(A3)=-0.0356 w(A4)=-0.1903 w(A5)=-0.2425 w(A6)=-0.0979 w(A7)=-0.6818 w(A8)=0.0021 w(A9)=0.3217 w(A10)=0.0539 w(A11)=0.6712 w(A12)=-0.7325 w(A13)=-0.7708 output=0.5874
After Iteration 334: w(A1)=0.1644 w(A2)=-0.1898 w(A3)=-0.0428 w(A4)=-0.1903 w(A5)=-0.2425 w(A6)=-0.1050 w(A7)=-0.6889 w(A8)=-0.0050 w(A9)=0.3217 w(A10)=0.0468 w(A11)=0.6641 w(A12)=-0.7396 w(A13)=-0.7780 output=0.1613
After Iteration 335: w(A1)=0.1644 w(A2)=-0.1898 w(A3)=-0.0428 w(A4)=-0.1903 w(A5)=-0.2723 w(A6)=-0.1050 w(A7)=-0.6889 w(A8)=-0.0348 w(A9)=0.3217 w(A10)=0.0468 w(A11)=0.6343 w(A12)=-0.7396 w(A13)=-0.8078 output=0.3821
After Iteration 336: w(A1)=0.1571 w(A2)=-0.1898 w(A3)=-0.0501 w(A4)=-0.1903 w(A5)=-0.2723 w(A6)=-0.1124 w(A7)=-0.6962 w(A8)=-0.0421 w(A9)=0.3217 w(A10)=0.0395 w(A11)=0.6269 w(A12)=-0.7470 w(A13)=-0.8151 output=0.1625
After Iteration 337: w(A1)=0.1983 w(A2)=-0.1486 w(A3)=-0.0501 w(A4)=-0.1490 w(A5)=-0.2311 w(A6)=-0.0711 w(A7)=-0.6962 w(A8)=-0.0421 w(A9)=0.3630 w(A10)=0.0807 w(A11)=0.6682 w(A12)=-0.7057 w(A13)=-0.7739 output=0.3167
After Iteration 338: w(A1)=0.1983 w(A2)=-0.1502 w(A3)=-0.0517 w(A4)=-0.1490 w(A5)=-0.2311 w(A6)=-0.0728 w(A7)=-0.6979 w(A8)=-0.0438 w(A9)=0.3630 w(A10)=0.0807 w(A11)=0.6682 w(A12)=-0.7074 w(A13)=-0.7755 output=0.0759
After Iteration 339: w(A1)=0.1962 w(A2)=-0.1502 w(A3)=-0.0538 w(A4)=-0.1490 w(A5)=-0.2332 w(A6)=-0.0749 w(A7)=-0.7000 w(A8)=-0.0438 w(A9)=0.3630 w(A10)=0.0807 w(A11)=0.6682 w(A12)=-0.7095 w(A13)=-0.7776 output=0.0868
After Iteration 340: w(A1)=0.1710 w(A2)=-0.1755 w(A3)=-0.0538 w(A4)=-0.1743 w(A5)=-0.2332 w(A6)=-0.0749 w(A7)=-0.7000 w(A8)=-0.0438 w(A9)=0.3377 w(A10)=0.0807 w(A11)=0.6429 w(A12)=-0.7347 w(A13)=-0.8029 output=0.3239
After Iteration 341: w(A1)=0.1710 w(A2)=-0.1755 w(A3)=-0.0598 w(A4)=-0.1802 w(A5)=-0.2391 w(A6)=-0.0808 w(A7)=-0.7059 w(A8)=-0.0438 w(A9)=0.3318 w(A10)=0.0748 w(A11)=0.6370 w(A12)=-0.7407 w(A13)=-0.8088 output=0.1453
After Iteration 342: w(A1)=0.1710 w(A2)=-0.1812 w(A3)=-0.0655 w(A4)=-0.1802 w(A5)=-0.2448 w(A6)=-0.0865 w(A7)=-0.7116 w(A8)=-0.0438 w(A9)=0.3261 w(A10)=0.0748 w(A11)=0.6370 w(A12)=-0.7407 w(A13)=-0.8145 output=0.1445
After Iteration 343: w(A1)=0.1696 w(A2)=-0.1826 w(A3)=-0.0655 w(A4)=-0.1802 w(A5)=-0.2462 w(A6)=-0.0879 w(A7)=-0.7130 w(A8)=-0.0452 w(A9)=0.3261 w(A10)=0.0734 w(A11)=0.6370 w(A12)=-0.7421 w(A13)=-0.8159 output=0.0698
After Iteration 344: w(A1)=0.1593 w(A2)=-0.1826 w(A3)=-0.0655 w(A4)=-0.1802 w(A5)=-0.2565 w(A6)=-0.0982 w(A7)=-0.7233 w(A8)=-0.0554 w(A9)=0.3158 w(A10)=0.0631 w(A11)=0.6370 w(A12)=-0.7421 w(A13)=-0.8262 output=0.1945
After Iteration 345: w(A1)=0.1593 w(A2)=-0.1388 w(A3)=-0.0655 w(A4)=-0.1365 w(A5)=-0.2565 w(A6)=-0.0982 w(A7)=-0.7233 w(A8)=-0.0554 w(A9)=0.3596 w(A10)=0.1069 w(A11)=0.6807 w(A12)=-0.6983 w(A13)=-0.7824 output=0.3523
After Iteration 346: w(A1)=0.1593 w(A2)=-0.1405 w(A3)=-0.0655 w(A4)=-0.1381 w(A5)=-0.2565 w(A6)=-0.0982 w(A7)=-0.7249 w(A8)=-0.0554 w(A9)=0.3596 w(A10)=0.1069 w(A11)=0.6807 w(A12)=-0.7000 w(A13)=-0.7841 output=0.0767
After Iteration 347: w(A1)=0.1593 w(A2)=-0.1472 w(A3)=-0.0655 w(A4)=-0.1448 w(A5)=-0.2632 w(A6)=-0.0982 w(A7)=-0.7316 w(A8)=-0.0621 w(A9)=0.3529 w(A10)=0.1002 w(A11)=0.6807 w(A12)=-0.7000 w(A13)=-0.7908 output=0.1562
After Iteration 348: w(A1)=0.1938 w(A2)=-0.1472 w(A3)=-0.0655 w(A4)=-0.1448 w(A5)=-0.2632 w(A6)=-0.0982 w(A7)=-0.7316 w(A8)=-0.0621 w(A9)=0.3529 w(A10)=0.1347 w(A11)=0.7152 w(A12)=-0.7000 w(A13)=-0.7563 output=0.5714
After Iteration 349: w(A1)=0.1751 w(A2)=-0.1659 w(A3)=-0.0842 w(A4)=-0.1636 w(A5)=-0.2819 w(A6)=-0.1169 w(A7)=-0.7316 w(A8)=-0.0808 w(A9)=0.3342 w(A10)=0.1160 w(A11)=0.7152 w(A12)=-0.7000 w(A13)=-0.7750 output=0.2606
After Iteration 350: w(A1)=0.2184 w(A2)=-0.1226 w(A3)=-0.0409 w(A4)=-0.1636 w(A5)=-0.2819 w(A6)=-0.1169 w(A7)=-0.6883 w(A8)=-0.0808 w(A9)=0.3774 w(A10)=0.1592 w(A11)=0.7585 w(A12)=-0.7000 w(A13)=-0.7317 output=0.4825
After Iteration 351: w(A1)=0.2184 w(A2)=-0.1346 w(A3)=-0.0529 w(A4)=-0.1636 w(A5)=-0.2939 w(A6)=-0.1289 w(A7)=-0.7003 w(A8)=-0.0808 w(A9)=0.3774 w(A10)=0.1592 w(A11)=0.7466 w(A12)=-0.7000 w(A13)=-0.7437 output=0.2129
After Iteration 352: w(A1)=0.2184 w(A2)=-0.1392 w(A3)=-0.0529 w(A4)=-0.1682 w(A5)=-0.2985 w(A6)=-0.1335 w(A7)=-0.7050 w(A8)=-0.0855 w(A9)=0.3728 w(A10)=0.1592 w(A11)=0.7466 w(A12)=-0.7000 w(A13)=-0.7483 output=0.1295
After Iteration 353: w(A1)=0.2184 w(A2)=-0.1593 w(A3)=-0.0729 w(A4)=-0.1882 w(A5)=-0.3185 w(A6)=-0.1535 w(A7)=-0.7050 w(A8)=-0.0855 w(A9)=0.3728 w(A10)=0.1592 w(A11)=0.7265 w(A12)=-0.7000 w(A13)=-0.7683 output=0.2821
After Iteration 354: w(A1)=0.2184 w(A2)=-0.1669 w(A3)=-0.0806 w(A4)=-0.1882 w(A5)=-0.3185 w(A6)=-0.1535 w(A7)=-0.7050 w(A8)=-0.0855 w(A9)=0.3728 w(A10)=0.1516 w(A11)=0.7265 w(A12)=-0.7077 w(A13)=-0.7760 output=0.1708
After Iteration 355: w(A1)=0.2094 w(A2)=-0.1669 w(A3)=-0.0806 w(A4)=-0.1972 w(A5)=-0.3185 w(A6)=-0.1535 w(A7)=-0.7140 w(A8)=-0.0855 w(A9)=0.3728 w(A10)=0.1516 w(A11)=0.7175 w(A12)=-0.7167 w(A13)=-0.7850 output=0.1845
After Iteration 356: w(A1)=0.2059 w(A2)=-0.1669 w(A3)=-0.0841 w(A4)=-0.2007 w(A5)=-0.3220 w(A6)=-0.1570 w(A7)=-0.7175 w(A8)=-0.0855 w(A9)=0.3728 w(A10)=0.1516 w(A11)=0.7175 w(A12)=-0.7167 w(A13)=-0.7885 output=0.1126
After Iteration 357: w(A1)=0.1849 w(A2)=-0.1879 w(A3)=-0.0841 w(A4)=-0.2007 w(A5)=-0.3220 w(A6)=-0.1570 w(A7)=-0.7175 w(A8)=-0.0855 w(A9)=0.3728 w(A10)=0.1516 w(A11)=0.7175 w(A12)=-0.7167 w(A13)=-0.8095 output=0.3073
After Iteration 358: w(A1)=0.1849 w(A2)=-0.1879 w(A3)=-0.0841 w(A4)=-0.2222 w(A5)=-0.3220 w(A6)=-0.1785 w(A7)=-0.7389 w(A8)=-0.1069 w(A9)=0.3514 w(A10)=0.1301 w(A11)=0.6961 w(A12)=-0.7167 w(A13)=-0.8310 output=0.2891
After Iteration 359: w(A1)=0.1849 w(A2)=-0.1894 w(A3)=-0.0855 w(A4)=-0.2236 w(A5)=-0.3235 w(A6)=-0.1799 w(A7)=-0.7403 w(A8)=-0.1084 w(A9)=0.3514 w(A10)=0.1287 w(A11)=0.6947 w(A12)=-0.7181 w(A13)=-0.8324 output=0.0706
After Iteration 360: w(A1)=0.1701 w(A2)=-0.2042 w(A3)=-0.1004 w(A4)=-0.2236 w(A5)=-0.3235 w(A6)=-0.1799 w(A7)=-0.7403 w(A8)=-0.1232 w(A9)=0.3514 w(A10)=0.1287 w(A11)=0.6798 w(A12)=-0.7330 w(A13)=-0.8473 output=0.2390
After Iteration 361: w(A1)=0.1701 w(A2)=-0.2042 w(A3)=-0.0561 w(A4)=-0.2236 w(A5)=-0.2792 w(A6)=-0.1799 w(A7)=-0.7403 w(A8)=-0.0789 w(A9)=0.3514 w(A10)=0.1730 w(A11)=0.7241 w(A12)=-0.7330 w(A13)=-0.8030 output=0.4206
After Iteration 362: w(A1)=0.1648 w(A2)=-0.2095 w(A3)=-0.0561 w(A4)=-0.2236 w(A5)=-0.2792 w(A6)=-0.1799 w(A7)=-0.7456 w(A8)=-0.0789 w(A9)=0.3461 w(A10)=0.1677 w(A11)=0.7241 w(A12)=-0.7383 w(A13)=-0.8083 output=0.1391
After Iteration 363: w(A1)=0.1539 w(A2)=-0.2095 w(A3)=-0.0670 w(A4)=-0.2345 w(A5)=-0.2901 w(A6)=-0.1908 w(A7)=-0.7456 w(A8)=-0.0898 w(A9)=0.3461 w(A10)=0.1568 w(A11)=0.7241 w(A12)=-0.7383 w(A13)=-0.8192 output=0.2009
After Iteration 364: w(A1)=0.1539 w(A2)=-0.1908 w(A3)=-0.0670 w(A4)=-0.2345 w(A5)=-0.2901 w(A6)=-0.1721 w(A7)=-0.7269 w(A8)=-0.0898 w(A9)=0.3461 w(A10)=0.1755 w(A11)=0.7241 w(A12)=-0.7195 w(A13)=-0.8004 output=0.0806
After Iteration 365: w(A1)=0.1856 w(A2)=-0.1908 w(A3)=-0.0670 w(A4)=-0.2027 w(A5)=-0.2901 w(A6)=-0.1721 w(A7)=-0.7269 w(A8)=-0.0581 w(A9)=0.3778 w(A10)=0.2073 w(A11)=0.7559 w(A12)=-0.7195 w(A13)=-0.7687 output=0.6218
After Iteration 366: w(A1)=0.2278 w(A2)=-0.1486 w(A3)=-0.0670 w(A4)=-0.1606 w(A5)=-0.2479 w(A6)=-0.1721 w(A7)=-0.7269 w(A8)=-0.0581 w(A9)=0.3778 w(A10)=0.2495 w(A11)=0.7980 w(A12)=-0.7195 w(A13)=-0.7265 output=0.4979
After Iteration 367: w(A1)=0.2136 w(A2)=-0.1486 w(A3)=-0.0670 w(A4)=-0.1606 w(A5)=-0.2622 w(A6)=-0.1721 w(A7)=-0.7269 w(A8)=-0.0581 w(A9)=0.3636 w(A10)=0.2495 w(A11)=0.7980 w(A12)=-0.7338 w(A13)=-0.7407 output=0.2388
After Iteration 368: w(A1)=0.2560 w(A2)=-0.1061 w(A3)=-0.0670 w(A4)=-0.1181 w(A5)=-0.2622 w(A6)=-0.1296 w(A7)=-0.7269 w(A8)=-0.0581 w(A9)=0.4061 w(A10)=0.2919 w(A11)=0.8405 w(A12)=-0.6913 w(A13)=-0.6983 output=0.5128
After Iteration 369: w(A1)=0.2259 w(A2)=-0.1061 w(A3)=-0.0972 w(A4)=-0.1181 w(A5)=-0.2924 w(A6)=-0.1598 w(A7)=-0.7269 w(A8)=-0.0581 w(A9)=0.3759 w(A10)=0.2919 w(A11)=0.8103 w(A12)=-0.7214 w(A13)=-0.7284 output=0.3573
After Iteration 370: w(A1)=0.1913 w(A2)=-0.1406 w(A3)=-0.0972 w(A4)=-0.1181 w(A5)=-0.3269 w(A6)=-0.1598 w(A7)=-0.7269 w(A8)=-0.0926 w(A9)=0.3759 w(A10)=0.2919 w(A11)=0.7758 w(A12)=-0.7214 w(A13)=-0.7630 output=0.4119
After Iteration 371: w(A1)=0.1913 w(A2)=-0.1446 w(A3)=-0.1011 w(A4)=-0.1181 w(A5)=-0.3269 w(A6)=-0.1637 w(A7)=-0.7269 w(A8)=-0.0965 w(A9)=0.3759 w(A10)=0.2919 w(A11)=0.7758 w(A12)=-0.7254 w(A13)=-0.7669 output=0.1194
After Iteration 372: w(A1)=0.1913 w(A2)=-0.1446 w(A3)=-0.0827 w(A4)=-0.0997 w(A5)=-0.3085 w(A6)=-0.1637 w(A7)=-0.7085 w(A8)=-0.0781 w(A9)=0.3759 w(A10)=0.3103 w(A11)=0.7758 w(A12)=-0.7070 w(A13)=-0.7485 output=0.0815
After Iteration 373: w(A1)=0.1541 w(A2)=-0.1818 w(A3)=-0.0827 w(A4)=-0.0997 w(A5)=-0.3085 w(A6)=-0.1637 w(A7)=-0.7085 w(A8)=-0.0781 w(A9)=0.3387 w(A10)=0.2731 w(A11)=0.7758 w(A12)=-0.7070 w(A13)=-0.7857 output=0.4498
After Iteration 374: w(A1)=0.1541 w(A2)=-0.1818 w(A3)=-0.0827 w(A4)=-0.0997 w(A5)=-0.3146 w(A6)=-0.1698 w(A7)=-0.7146 w(A8)=-0.0781 w(A9)=0.3387 w(A10)=0.2670 w(A11)=0.7758 w(A12)=-0.7070 w(A13)=-0.7918 output=0.1514
After Iteration 375: w(A1)=0.1541 w(A2)=-0.1818 w(A3)=-0.0827 w(A4)=-0.0997 w(A5)=-0.2776 w(A6)=-0.1328 w(A7)=-0.7146 w(A8)=-0.0411 w(A9)=0.3757 w(A10)=0.3040 w(A11)=0.8128 w(A12)=-0.7070 w(A13)=-0.7548 output=0.5710
After Iteration 376: w(A1)=0.1963 w(A2)=-0.1818 w(A3)=-0.0827 w(A4)=-0.0576 w(A5)=-0.2776 w(A6)=-0.1328 w(A7)=-0.7146 w(A8)=-0.0411 w(A9)=0.3757 w(A10)=0.3461 w(A11)=0.8128 w(A12)=-0.6648 w(A13)=-0.7127 output=0.2906
After Iteration 377: w(A1)=0.1963 w(A2)=-0.1818 w(A3)=-0.0455 w(A4)=-0.0576 w(A5)=-0.2776 w(A6)=-0.1328 w(A7)=-0.7146 w(A8)=-0.0411 w(A9)=0.3757 w(A10)=0.3461 w(A11)=0.8500 w(A12)=-0.6648 w(A13)=-0.6755 output=0.5322
After Iteration 378: w(A1)=0.1592 w(A2)=-0.1818 w(A3)=-0.0455 w(A4)=-0.0576 w(A5)=-0.3147 w(A6)=-0.1699 w(A7)=-0.7146 w(A8)=-0.0782 w(A9)=0.3386 w(A10)=0.3091 w(A11)=0.8129 w(A12)=-0.7019 w(A13)=-0.7125 output=0.4116
After Iteration 379: w(A1)=0.1403 w(A2)=-0.2007 w(A3)=-0.0644 w(A4)=-0.0576 w(A5)=-0.3147 w(A6)=-0.1699 w(A7)=-0.7335 w(A8)=-0.0782 w(A9)=0.3197 w(A10)=0.2902 w(A11)=0.8129 w(A12)=-0.7019 w(A13)=-0.7314 output=0.2729
After Iteration 380: w(A1)=0.1403 w(A2)=-0.2007 w(A3)=-0.0734 w(A4)=-0.0665 w(A5)=-0.3147 w(A6)=-0.1789 w(A7)=-0.7425 w(A8)=-0.0871 w(A9)=0.3197 w(A10)=0.2812 w(A11)=0.8039 w(A12)=-0.7108 w(A13)=-0.7404 output=0.1803
After Iteration 381: w(A1)=0.1403 w(A2)=-0.2080 w(A3)=-0.0734 w(A4)=-0.0665 w(A5)=-0.3220 w(A6)=-0.1862 w(A7)=-0.7498 w(A8)=-0.0945 w(A9)=0.3124 w(A10)=0.2738 w(A11)=0.7966 w(A12)=-0.7182 w(A13)=-0.7478 output=0.1619
After Iteration 382: w(A1)=0.1116 w(A2)=-0.2080 w(A3)=-0.0734 w(A4)=-0.0952 w(A5)=-0.3507 w(A6)=-0.1862 w(A7)=-0.7498 w(A8)=-0.0945 w(A9)=0.2837 w(A10)=0.2451 w(A11)=0.7966 w(A12)=-0.7182 w(A13)=-0.7765 output=0.3585
After Iteration 383: w(A1)=0.1116 w(A2)=-0.1638 w(A3)=-0.0734 w(A4)=-0.0510 w(A5)=-0.3065 w(A6)=-0.1862 w(A7)=-0.7498 w(A8)=-0.0945 w(A9)=0.3279 w(A10)=0.2893 w(A11)=0.8408 w(A12)=-0.6740 w(A13)=-0.7323 output=0.3847
After Iteration 384: w(A1)=0.0878 w(A2)=-0.1638 w(A3)=-0.0973 w(A4)=-0.0749 w(A5)=-0.3304 w(A6)=-0.2101 w(A7)=-0.7498 w(A8)=-0.0945 w(A9)=0.3040 w(A10)=0.2655 w(A11)=0.8408 w(A12)=-0.6740 w(A13)=-0.7561 output=0.3076
After Iteration 385: w(A1)=0.0878 w(A2)=-0.1638 w(A3)=-0.0530 w(A4)=-0.0306 w(A5)=-0.2861 w(A6)=-0.1658 w(A7)=-0.7056 w(A8)=-0.0945 w(A9)=0.3483 w(A10)=0.3097 w(A11)=0.8850 w(A12)=-0.6740 w(A13)=-0.7119 output=0.3989
After Iteration 386: w(A1)=0.0878 w(A2)=-0.1291 w(A3)=-0.0183 w(A4)=0.0041 w(A5)=-0.2861 w(A6)=-0.1658 w(A7)=-0.7056 w(A8)=-0.0598 w(A9)=0.3483 w(A10)=0.3444 w(A11)=0.9197 w(A12)=-0.6740 w(A13)=-0.6772 output=0.5948
After Iteration 387: w(A1)=0.0687 w(A2)=-0.1482 w(A3)=-0.0374 w(A4)=-0.0150 w(A5)=-0.3052 w(A6)=-0.1849 w(A7)=-0.7056 w(A8)=-0.0598 w(A9)=0.3483 w(A10)=0.3254 w(A11)=0.9197 w(A12)=-0.6740 w(A13)=-0.6962 output=0.2704
After Iteration 388: w(A1)=0.0379 w(A2)=-0.1482 w(A3)=-0.0682 w(A4)=-0.0150 w(A5)=-0.3052 w(A6)=-0.2157 w(A7)=-0.7056 w(A8)=-0.0907 w(A9)=0.3174 w(A10)=0.3254 w(A11)=0.8888 w(A12)=-0.7049 w(A13)=-0.7271 output=0.3630
After Iteration 389: w(A1)=0.0379 w(A2)=-0.1482 w(A3)=-0.0795 w(A4)=-0.0263 w(A5)=-0.3164 w(A6)=-0.2157 w(A7)=-0.7169 w(A8)=-0.1019 w(A9)=0.3061 w(A10)=0.3141 w(A11)=0.8888 w(A12)=-0.7049 w(A13)=-0.7384 output=0.2044
After Iteration 390: w(A1)=0.0379 w(A2)=-0.1482 w(A3)=-0.0869 w(A4)=-0.0337 w(A5)=-0.3164 w(A6)=-0.2231 w(A7)=-0.7243 w(A8)=-0.1094 w(A9)=0.3061 w(A10)=0.3067 w(A11)=0.8888 w(A12)=-0.7049 w(A13)=-0.7458 output=0.1657
After Iteration 391: w(A1)=0.0379 w(A2)=-0.1482 w(A3)=-0.0869 w(A4)=-0.0337 w(A5)=-0.3164 w(A6)=-0.2376 w(A7)=-0.7243 w(A8)=-0.1238 w(A9)=0.3061 w(A10)=0.3067 w(A11)=0.8888 w(A12)=-0.7049 w(A13)=-0.7602 output=0.2457
After Iteration 392: w(A1)=0.0379 w(A2)=-0.1672 w(A3)=-0.1060 w(A4)=-0.0337 w(A5)=-0.3355 w(A6)=-0.2376 w(A7)=-0.7433 w(A8)=-0.1238 w(A9)=0.3061 w(A10)=0.2876 w(A11)=0.8698 w(A12)=-0.7049 w(A13)=-0.7793 output=0.2741
After Iteration 393: w(A1)=0.0308 w(A2)=-0.1743 w(A3)=-0.1131 w(A4)=-0.0337 w(A5)=-0.3355 w(A6)=-0.2376 w(A7)=-0.7505 w(A8)=-0.1238 w(A9)=0.3061 w(A10)=0.2876 w(A11)=0.8627 w(A12)=-0.7120 w(A13)=-0.7864 output=0.1621
After Iteration 394: w(A1)=0.0308 w(A2)=-0.1882 w(A3)=-0.1131 w(A4)=-0.0475 w(A5)=-0.3355 w(A6)=-0.2376 w(A7)=-0.7505 w(A8)=-0.1238 w(A9)=0.2923 w(A10)=0.2738 w(A11)=0.8627 w(A12)=-0.7258 w(A13)=-0.8002 output=0.2323
After Iteration 395: w(A1)=0.0290 w(A2)=-0.1899 w(A3)=-0.1131 w(A4)=-0.0475 w(A5)=-0.3355 w(A6)=-0.2376 w(A7)=-0.7522 w(A8)=-0.1238 w(A9)=0.2923 w(A10)=0.2738 w(A11)=0.8627 w(A12)=-0.7276 w(A13)=-0.8020 output=0.0800
After Iteration 396: w(A1)=0.0290 w(A2)=-0.1899 w(A3)=-0.1131 w(A4)=-0.0539 w(A5)=-0.3419 w(A6)=-0.2376 w(A7)=-0.7586 w(A8)=-0.1238 w(A9)=0.2923 w(A10)=0.2674 w(A11)=0.8627 w(A12)=-0.7276 w(A13)=-0.8084 output=0.1551
After Iteration 397: w(A1)=0.0644 w(A2)=-0.1546 w(A3)=-0.1131 w(A4)=-0.0185 w(A5)=-0.3419 w(A6)=-0.2376 w(A7)=-0.7586 w(A8)=-0.1238 w(A9)=0.2923 w(A10)=0.3028 w(A11)=0.8981 w(A12)=-0.7276 w(A13)=-0.7730 output=0.5791
After Iteration 398: w(A1)=0.1011 w(A2)=-0.1178 w(A3)=-0.0763 w(A4)=0.0183 w(A5)=-0.3419 w(A6)=-0.2008 w(A7)=-0.7586 w(A8)=-0.0870 w(A9)=0.3291 w(A10)=0.3396 w(A11)=0.8981 w(A12)=-0.6908 w(A13)=-0.7362 output=0.2458
After Iteration 399: w(A1)=0.1011 w(A2)=-0.1178 w(A3)=-0.0763 w(A4)=-0.0002 w(A5)=-0.3419 w(A6)=-0.2193 w(A7)=-0.7772 w(A8)=-0.1055 w(A9)=0.3291 w(A10)=0.3396 w(A11)=0.8796 w(A12)=-0.6908 w(A13)=-0.7547 output=0.2734
Accuracy on training set(400 instances): 78.75%
Accuracy on test set(100 instances): 73.0%
